Data/ALL0013/F0013CH2.CSV

Record Length,2.500000e+03,,   0.000931500000,  -2.00000,
Sample Interval,4.000000e-10,,   0.000931500400,  -2.00000,
Trigger Point,-2.328750000000e+06,,   0.000931500800,  -2.00000,
,,,   0.000931501200,  -2.08000,
,,,   0.000931501600,  -2.16000,
,,,   0.000931502000,  -2.24000,
Source,CH2,,   0.000931502400,  -2.32000,
Vertical Units,V,,   0.000931502800,  -2.32000,
Vertical Scale,2.000000e+00,,   0.000931503200,  -2.40000,
Vertical Offset,8.000000e-01,,   0.000931503600,  -2.48000,
Horizontal Units,s,,   0.000931504000,  -2.56000,
Horizontal Scale,1.000000e-07,,   0.000931504400,  -2.64000,
Pt Fmt,Y,,   0.000931504800,  -2.64000,
Yzero,0.000000e+00,,   0.000931505200,  -2.72000,
Probe Atten,1.000000e+00,,   0.000931505600,  -2.80000,
Model Number,TDS2001C,,   0.000931506000,  -2.88000,
Serial Number,C012347,,   0.000931506400,  -2.96000,
Firmware Version,FV:v24.26,,   0.000931506800,  -3.04000,
,,,0.000931507200,  -3.12000,
,,,0.000931507600,  -3.12000,
,,,0.000931508000,  -3.20000,
,,,0.000931508400,  -3.28000,
,,,0.000931508800,  -3.28000,
,,,0.000931509200,  -3.36000,
,,,0.000931509600,  -3.36000,
,,,0.000931510000,  -3.44000,
,,,0.000931510400,  -3.44000,
,,,0.000931510800,  -3.44000,
,,,0.000931511200,  -3.52000,
,,,0.000931511600,  -3.60000,
,,,0.000931512000,  -3.68000,
,,,0.000931512400,  -3.76000,
,,,0.000931512800,  -3.76000,
,,,0.000931513200,  -3.76000,
,,,0.000931513600,  -3.76000,
,,,0.000931514000,  -3.84000,
,,,0.000931514400,  -3.84000,
,,,0.000931514800,  -3.84000,
,,,0.000931515200,  -3.92000,
,,,0.000931515600,  -3.92000,
,,,0.000931516000,  -4.00000,
,,,0.000931516400,  -4.00000,
,,,0.000931516800,  -4.00000,
,,,0.000931517200,  -4.08000,
,,,0.000931517600,  -4.16000,
,,,0.000931518000,  -4.16000,
,,,0.000931518400,  -4.16000,
,,,0.000931518800,  -4.16000,
,,,0.000931519200,  -4.24000,
,,,0.000931519600,  -4.32000,
,,,0.000931520000,  -4.32000,
,,,0.000931520400,  -4.32000,
,,,0.000931520800,  -4.24000,
,,,0.000931521200,  -4.24000,
,,,0.000931521600,  -4.24000,
,,,0.000931522000,  -4.32000,
,,,0.000931522400,  -4.32000,
,,,0.000931522800,  -4.32000,
,,,0.000931523200,  -4.32000,
,,,0.000931523600,  -4.32000,
,,,0.000931524000,  -4.40000,
,,,0.000931524400,  -4.40000,
,,,0.000931524800,  -4.40000,
,,,0.000931525200,  -4.40000,
,,,0.000931525600,  -4.40000,
,,,0.000931526000,  -4.40000,
,,,0.000931526400,  -4.40000,
,,,0.000931526800,  -4.40000,
,,,0.000931527200,  -4.40000,
,,,0.000931527600,  -4.40000,
,,,0.000931528000,  -4.40000,
,,,0.000931528400,  -4.40000,
,,,0.000931528800,  -4.32000,
,,,0.000931529200,  -4.32000,
,,,0.000931529600,  -4.32000,
,,,0.000931530000,  -4.32000,
,,,0.000931530400,  -4.32000,
,,,0.000931530800,  -4.32000,
,,,0.000931531200,  -4.32000,
,,,0.000931531600,  -4.32000,
,,,0.000931532000,  -4.32000,
,,,0.000931532400,  -4.32000,
,,,0.000931532800,  -4.24000,
,,,0.000931533200,  -4.24000,
,,,0.000931533600,  -4.24000,
,,,0.000931534000,  -4.16000,
,,,0.000931534400,  -4.16000,
,,,0.000931534800,  -4.08000,
,,,0.000931535200,  -4.08000,
,,,0.000931535600,  -4.00000,
,,,0.000931536000,  -3.92000,
,,,0.000931536400,  -3.92000,
,,,0.000931536800,  -3.84000,
,,,0.000931537200,  -3.84000,
,,,0.000931537600,  -3.84000,
,,,0.000931538000,  -3.76000,
,,,0.000931538400,  -3.68000,
,,,0.000931538800,  -3.60000,
,,,0.000931539200,  -3.60000,
,,,0.000931539600,  -3.52000,
,,,0.000931540000,  -3.44000,
,,,0.000931540400,  -3.44000,
,,,0.000931540800,  -3.36000,
,,,0.000931541200,  -3.36000,
,,,0.000931541600,  -3.36000,
,,,0.000931542000,  -3.28000,
,,,0.000931542400,  -3.20000,
,,,0.000931542800,  -3.12000,
,,,0.000931543200,  -3.12000,
,,,0.000931543600,  -3.04000,
,,,0.000931544000,  -2.96000,
,,,0.000931544400,  -2.96000,
,,,0.000931544800,  -2.88000,
,,,0.000931545200,  -2.88000,
,,,0.000931545600,  -2.80000,
,,,0.000931546000,  -2.72000,
,,,0.000931546400,  -2.64000,
,,,0.000931546800,  -2.48000,
,,,0.000931547200,  -2.48000,
,,,0.000931547600,  -2.40000,
,,,0.000931548000,  -2.32000,
,,,0.000931548400,  -2.24000,
,,,0.000931548800,  -2.16000,
,,,0.000931549200,  -2.16000,
,,,0.000931549600,  -2.16000,
,,,0.000931550000,  -2.08000,
,,,0.000931550400,  -2.00000,
,,,0.000931550800,  -1.92000,
,,,0.000931551200,  -1.84000,
,,,0.000931551600,  -1.76000,
,,,0.000931552000,  -1.68000,
,,,0.000931552400,  -1.60000,
,,,0.000931552800,  -1.52000,
,,,0.000931553200,  -1.52000,
,,,0.000931553600,  -1.44000,
,,,0.000931554000,  -1.36000,
,,,0.000931554400,  -1.28000,
,,,0.000931554800,  -1.20000,
,,,0.000931555200,  -1.12000,
,,,0.000931555600,  -0.96000,
,,,0.000931556000,  -0.88000,
,,,0.000931556400,  -0.72000,
,,,0.000931556800,  -0.64000,
,,,0.000931557200,  -0.56000,
,,,0.000931557600,  -0.56000,
,,,0.000931558000,  -0.48000,
,,,0.000931558400,  -0.48000,
,,,0.000931558800,  -0.40000,
,,,0.000931559200,  -0.32000,
,,,0.000931559600,  -0.24000,
,,,0.000931560000,  -0.16000,
,,,0.000931560400,  -0.08000,
,,,0.000931560800,   0.00000,
,,,0.000931561200,   0.00000,
,,,0.000931561600,   0.08000,
,,,0.000931562000,   0.16000,
,,,0.000931562400,   0.24000,
,,,0.000931562800,   0.32000,
,,,0.000931563200,   0.40000,
,,,0.000931563600,   0.48000,
,,,0.000931564000,   0.56000,
,,,0.000931564400,   0.64000,
,,,0.000931564800,   0.72000,
,,,0.000931565200,   0.80000,
,,,0.000931565600,   0.88000,
,,,0.000931566000,   0.96000,
,,,0.000931566400,   1.12000,
,,,0.000931566800,   1.20000,
,,,0.000931567200,   1.20000,
,,,0.000931567600,   1.20000,
,,,0.000931568000,   1.28000,
,,,0.000931568400,   1.36000,
,,,0.000931568800,   1.52000,
,,,0.000931569200,   1.52000,
,,,0.000931569600,   1.60000,
,,,0.000931570000,   1.68000,
,,,0.000931570400,   1.76000,
,,,0.000931570800,   1.84000,
,,,0.000931571200,   1.84000,
,,,0.000931571600,   1.92000,
,,,0.000931572000,   2.00000,
,,,0.000931572400,   2.08000,
,,,0.000931572800,   2.16000,
,,,0.000931573200,   2.16000,
,,,0.000931573600,   2.24000,
,,,0.000931574000,   2.32000,
,,,0.000931574400,   2.40000,
,,,0.000931574800,   2.48000,
,,,0.000931575200,   2.48000,
,,,0.000931575600,   2.56000,
,,,0.000931576000,   2.64000,
,,,0.000931576400,   2.72000,
,,,0.000931576800,   2.88000,
,,,0.000931577200,   2.96000,
,,,0.000931577600,   2.96000,
,,,0.000931578000,   3.04000,
,,,0.000931578400,   3.04000,
,,,0.000931578800,   3.12000,
,,,0.000931579200,   3.12000,
,,,0.000931579600,   3.20000,
,,,0.000931580000,   3.28000,
,,,0.000931580400,   3.36000,
,,,0.000931580800,   3.44000,
,,,0.000931581200,   3.44000,
,,,0.000931581600,   3.52000,
,,,0.000931582000,   3.52000,
,,,0.000931582400,   3.52000,
,,,0.000931582800,   3.52000,
,,,0.000931583200,   3.52000,
,,,0.000931583600,   3.60000,
,,,0.000931584000,   3.68000,
,,,0.000931584400,   3.76000,
,,,0.000931584800,   3.84000,
,,,0.000931585200,   3.84000,
,,,0.000931585600,   3.92000,
,,,0.000931586000,   4.00000,
,,,0.000931586400,   4.00000,
,,,0.000931586800,   4.08000,
,,,0.000931587200,   4.08000,
,,,0.000931587600,   4.08000,
,,,0.000931588000,   4.08000,
,,,0.000931588400,   4.08000,
,,,0.000931588800,   4.16000,
,,,0.000931589200,   4.24000,
,,,0.000931589600,   4.24000,
,,,0.000931590000,   4.32000,
,,,0.000931590400,   4.24000,
,,,0.000931590800,   4.24000,
,,,0.000931591200,   4.24000,
,,,0.000931591600,   4.24000,
,,,0.000931592000,   4.32000,
,,,0.000931592400,   4.32000,
,,,0.000931592800,   4.40000,
,,,0.000931593200,   4.40000,
,,,0.000931593600,   4.48000,
,,,0.000931594000,   4.40000,
,,,0.000931594400,   4.40000,
,,,0.000931594800,   4.40000,
,,,0.000931595200,   4.40000,
,,,0.000931595600,   4.40000,
,,,0.000931596000,   4.40000,
,,,0.000931596400,   4.40000,
,,,0.000931596800,   4.40000,
,,,0.000931597200,   4.40000,
,,,0.000931597600,   4.40000,
,,,0.000931598000,   4.48000,
,,,0.000931598400,   4.48000,
,,,0.000931598800,   4.48000,
,,,0.000931599200,   4.40000,
,,,0.000931599600,   4.40000,
,,,0.000931600000,   4.40000,
,,,0.000931600400,   4.40000,
,,,0.000931600800,   4.40000,
,,,0.000931601200,   4.40000,
,,,0.000931601600,   4.40000,
,,,0.000931602000,   4.32000,
,,,0.000931602400,   4.32000,
,,,0.000931602800,   4.32000,
,,,0.000931603200,   4.32000,
,,,0.000931603600,   4.32000,
,,,0.000931604000,   4.24000,
,,,0.000931604400,   4.24000,
,,,0.000931604800,   4.24000,
,,,0.000931605200,   4.16000,
,,,0.000931605600,   4.16000,
,,,0.000931606000,   4.08000,
,,,0.000931606400,   4.08000,
,,,0.000931606800,   4.08000,
,,,0.000931607200,   4.00000,
,,,0.000931607600,   3.92000,
,,,0.000931608000,   3.84000,
,,,0.000931608400,   3.76000,
,,,0.000931608800,   3.76000,
,,,0.000931609200,   3.68000,
,,,0.000931609600,   3.76000,
,,,0.000931610000,   3.76000,
,,,0.000931610400,   3.76000,
,,,0.000931610800,   3.76000,
,,,0.000931611200,   3.68000,
,,,0.000931611600,   3.60000,
,,,0.000931612000,   3.52000,
,,,0.000931612400,   3.44000,
,,,0.000931612800,   3.44000,
,,,0.000931613200,   3.36000,
,,,0.000931613600,   3.36000,
,,,0.000931614000,   3.28000,
,,,0.000931614400,   3.20000,
,,,0.000931614800,   3.20000,
,,,0.000931615200,   3.12000,
,,,0.000931615600,   3.04000,
,,,0.000931616000,   2.96000,
,,,0.000931616400,   2.88000,
,,,0.000931616800,   2.88000,
,,,0.000931617200,   2.80000,
,,,0.000931617600,   2.80000,
,,,0.000931618000,   2.72000,
,,,0.000931618400,   2.64000,
,,,0.000931618800,   2.56000,
,,,0.000931619200,   2.48000,
,,,0.000931619600,   2.40000,
,,,0.000931620000,   2.32000,
,,,0.000931620400,   2.32000,
,,,0.000931620800,   2.24000,
,,,0.000931621200,   2.08000,
,,,0.000931621600,   2.00000,
,,,0.000931622000,   1.92000,
,,,0.000931622400,   1.84000,
,,,0.000931622800,   1.84000,
,,,0.000931623200,   1.76000,
,,,0.000931623600,   1.68000,
,,,0.000931624000,   1.60000,
,,,0.000931624400,   1.60000,
,,,0.000931624800,   1.52000,
,,,0.000931625200,   1.36000,
,,,0.000931625600,   1.28000,
,,,0.000931626000,   1.20000,
,,,0.000931626400,   1.12000,
,,,0.000931626800,   1.12000,
,,,0.000931627200,   1.04000,
,,,0.000931627600,   0.96000,
,,,0.000931628000,   0.88000,
,,,0.000931628400,   0.80000,
,,,0.000931628800,   0.72000,
,,,0.000931629200,   0.64000,
,,,0.000931629600,   0.56000,
,,,0.000931630000,   0.48000,
,,,0.000931630400,   0.32000,
,,,0.000931630800,   0.24000,
,,,0.000931631200,   0.16000,
,,,0.000931631600,   0.08000,
,,,0.000931632000,   0.00000,
,,,0.000931632400,   0.00000,
,,,0.000931632800,   0.00000,
,,,0.000931633200,  -0.08000,
,,,0.000931633600,  -0.16000,
,,,0.000931634000,  -0.24000,
,,,0.000931634400,  -0.32000,
,,,0.000931634800,  -0.40000,
,,,0.000931635200,  -0.56000,
,,,0.000931635600,  -0.64000,
,,,0.000931636000,  -0.72000,
,,,0.000931636400,  -0.80000,
,,,0.000931636800,  -0.88000,
,,,0.000931637200,  -0.96000,
,,,0.000931637600,  -1.04000,
,,,0.000931638000,  -1.12000,
,,,0.000931638400,  -1.12000,
,,,0.000931638800,  -1.12000,
,,,0.000931639200,  -1.28000,
,,,0.000931639600,  -1.36000,
,,,0.000931640000,  -1.44000,
,,,0.000931640400,  -1.52000,
,,,0.000931640800,  -1.52000,
,,,0.000931641200,  -1.60000,
,,,0.000931641600,  -1.68000,
,,,0.000931642000,  -1.76000,
,,,0.000931642400,  -1.84000,
,,,0.000931642800,  -1.92000,
,,,0.000931643200,  -2.00000,
,,,0.000931643600,  -2.08000,
,,,0.000931644000,  -2.16000,
,,,0.000931644400,  -2.16000,
,,,0.000931644800,  -2.16000,
,,,0.000931645200,  -2.24000,
,,,0.000931645600,  -2.32000,
,,,0.000931646000,  -2.40000,
,,,0.000931646400,  -2.48000,
,,,0.000931646800,  -2.48000,
,,,0.000931647200,  -2.56000,
,,,0.000931647600,  -2.64000,
,,,0.000931648000,  -2.72000,
,,,0.000931648400,  -2.80000,
,,,0.000931648800,  -2.80000,
,,,0.000931649200,  -2.88000,
,,,0.000931649600,  -2.88000,
,,,0.000931650000,  -2.96000,
,,,0.000931650400,  -2.96000,
,,,0.000931650800,  -3.04000,
,,,0.000931651200,  -3.20000,
,,,0.000931651600,  -3.28000,
,,,0.000931652000,  -3.28000,
,,,0.000931652400,  -3.28000,
,,,0.000931652800,  -3.28000,
,,,0.000931653200,  -3.36000,
,,,0.000931653600,  -3.44000,
,,,0.000931654000,  -3.52000,
,,,0.000931654400,  -3.60000,
,,,0.000931654800,  -3.60000,
,,,0.000931655200,  -3.68000,
,,,0.000931655600,  -3.68000,
,,,0.000931656000,  -3.76000,
,,,0.000931656400,  -3.76000,
,,,0.000931656800,  -3.76000,
,,,0.000931657200,  -3.84000,
,,,0.000931657600,  -3.92000,
,,,0.000931658000,  -3.92000,
,,,0.000931658400,  -3.92000,
,,,0.000931658800,  -3.92000,
,,,0.000931659200,  -4.00000,
,,,0.000931659600,  -4.00000,
,,,0.000931660000,  -4.08000,
,,,0.000931660400,  -4.16000,
,,,0.000931660800,  -4.16000,
,,,0.000931661200,  -4.24000,
,,,0.000931661600,  -4.24000,
,,,0.000931662000,  -4.32000,
,,,0.000931662400,  -4.32000,
,,,0.000931662800,  -4.32000,
,,,0.000931663200,  -4.32000,
,,,0.000931663600,  -4.32000,
,,,0.000931664000,  -4.32000,
,,,0.000931664400,  -4.32000,
,,,0.000931664800,  -4.32000,
,,,0.000931665200,  -4.32000,
,,,0.000931665600,  -4.32000,
,,,0.000931666000,  -4.32000,
,,,0.000931666400,  -4.32000,
,,,0.000931666800,  -4.32000,
,,,0.000931667200,  -4.40000,
,,,0.000931667600,  -4.40000,
,,,0.000931668000,  -4.40000,
,,,0.000931668400,  -4.40000,
,,,0.000931668800,  -4.40000,
,,,0.000931669200,  -4.40000,
,,,0.000931669600,  -4.40000,
,,,0.000931670000,  -4.40000,
,,,0.000931670400,  -4.40000,
,,,0.000931670800,  -4.40000,
,,,0.000931671200,  -4.48000,
,,,0.000931671600,  -4.40000,
,,,0.000931672000,  -4.40000,
,,,0.000931672400,  -4.32000,
,,,0.000931672800,  -4.24000,
,,,0.000931673200,  -4.24000,
,,,0.000931673600,  -4.24000,
,,,0.000931674000,  -4.24000,
,,,0.000931674400,  -4.24000,
,,,0.000931674800,  -4.16000,
,,,0.000931675200,  -4.16000,
,,,0.000931675600,  -4.16000,
,,,0.000931676000,  -4.08000,
,,,0.000931676400,  -4.08000,
,,,0.000931676800,  -4.00000,
,,,0.000931677200,  -4.00000,
,,,0.000931677600,  -4.00000,
,,,0.000931678000,  -3.92000,
,,,0.000931678400,  -3.92000,
,,,0.000931678800,  -3.84000,
,,,0.000931679200,  -3.84000,
,,,0.000931679600,  -3.84000,
,,,0.000931680000,  -3.84000,
,,,0.000931680400,  -3.84000,
,,,0.000931680800,  -3.76000,
,,,0.000931681200,  -3.76000,
,,,0.000931681600,  -3.68000,
,,,0.000931682000,  -3.60000,
,,,0.000931682400,  -3.52000,
,,,0.000931682800,  -3.44000,
,,,0.000931683200,  -3.44000,
,,,0.000931683600,  -3.44000,
,,,0.000931684000,  -3.36000,
,,,0.000931684400,  -3.36000,
,,,0.000931684800,  -3.28000,
,,,0.000931685200,  -3.28000,
,,,0.000931685600,  -3.28000,
,,,0.000931686000,  -3.20000,
,,,0.000931686400,  -3.12000,
,,,0.000931686800,  -3.04000,
,,,0.000931687200,  -3.04000,
,,,0.000931687600,  -2.96000,
,,,0.000931688000,  -2.88000,
,,,0.000931688400,  -2.80000,
,,,0.000931688800,  -2.72000,
,,,0.000931689200,  -2.72000,
,,,0.000931689600,  -2.72000,
,,,0.000931690000,  -2.64000,
,,,0.000931690400,  -2.56000,
,,,0.000931690800,  -2.48000,
,,,0.000931691200,  -2.40000,
,,,0.000931691600,  -2.32000,
,,,0.000931692000,  -2.24000,
,,,0.000931692400,  -2.16000,
,,,0.000931692800,  -2.08000,
,,,0.000931693200,  -2.08000,
,,,0.000931693600,  -2.00000,
,,,0.000931694000,  -1.92000,
,,,0.000931694400,  -1.84000,
,,,0.000931694800,  -1.76000,
,,,0.000931695200,  -1.68000,
,,,0.000931695600,  -1.60000,
,,,0.000931696000,  -1.52000,
,,,0.000931696400,  -1.44000,
,,,0.000931696800,  -1.28000,
,,,0.000931697200,  -1.28000,
,,,0.000931697600,  -1.20000,
,,,0.000931698000,  -1.12000,
,,,0.000931698400,  -1.04000,
,,,0.000931698800,  -0.96000,
,,,0.000931699200,  -0.96000,
,,,0.000931699600,  -0.88000,
,,,0.000931700000,  -0.80000,
,,,0.000931700400,  -0.72000,
,,,0.000931700800,  -0.56000,
,,,0.000931701200,  -0.48000,
,,,0.000931701600,  -0.40000,
,,,0.000931702000,  -0.32000,
,,,0.000931702400,  -0.24000,
,,,0.000931702800,  -0.16000,
,,,0.000931703200,  -0.16000,
,,,0.000931703600,  -0.08000,
,,,0.000931704000,   0.00000,
,,,0.000931704400,   0.08000,
,,,0.000931704800,   0.16000,
,,,0.000931705200,   0.24000,
,,,0.000931705600,   0.32000,
,,,0.000931706000,   0.40000,
,,,0.000931706400,   0.48000,
,,,0.000931706800,   0.64000,
,,,0.000931707200,   0.72000,
,,,0.000931707600,   0.80000,
,,,0.000931708000,   0.88000,
,,,0.000931708400,   0.96000,
,,,0.000931708800,   1.04000,
,,,0.000931709200,   1.04000,
,,,0.000931709600,   1.12000,
,,,0.000931710000,   1.20000,
,,,0.000931710400,   1.28000,
,,,0.000931710800,   1.44000,
,,,0.000931711200,   1.44000,
,,,0.000931711600,   1.52000,
,,,0.000931712000,   1.60000,
,,,0.000931712400,   1.68000,
,,,0.000931712800,   1.76000,
,,,0.000931713200,   1.76000,
,,,0.000931713600,   1.84000,
,,,0.000931714000,   1.92000,
,,,0.000931714400,   2.00000,
,,,0.000931714800,   2.16000,
,,,0.000931715200,   2.16000,
,,,0.000931715600,   2.24000,
,,,0.000931716000,   2.32000,
,,,0.000931716400,   2.40000,
,,,0.000931716800,   2.48000,
,,,0.000931717200,   2.48000,
,,,0.000931717600,   2.56000,
,,,0.000931718000,   2.64000,
,,,0.000931718400,   2.72000,
,,,0.000931718800,   2.80000,
,,,0.000931719200,   2.80000,
,,,0.000931719600,   2.80000,
,,,0.000931720000,   2.88000,
,,,0.000931720400,   2.96000,
,,,0.000931720800,   3.04000,
,,,0.000931721200,   3.04000,
,,,0.000931721600,   3.12000,
,,,0.000931722000,   3.20000,
,,,0.000931722400,   3.28000,
,,,0.000931722800,   3.36000,
,,,0.000931723200,   3.36000,
,,,0.000931723600,   3.36000,
,,,0.000931724000,   3.44000,
,,,0.000931724400,   3.44000,
,,,0.000931724800,   3.52000,
,,,0.000931725200,   3.60000,
,,,0.000931725600,   3.68000,
,,,0.000931726000,   3.76000,
,,,0.000931726400,   3.76000,
,,,0.000931726800,   3.84000,
,,,0.000931727200,   3.84000,
,,,0.000931727600,   3.84000,
,,,0.000931728000,   3.92000,
,,,0.000931728400,   4.00000,
,,,0.000931728800,   4.08000,
,,,0.000931729200,   4.08000,
,,,0.000931729600,   4.08000,
,,,0.000931730000,   4.08000,
,,,0.000931730400,   4.08000,
,,,0.000931730800,   4.16000,
,,,0.000931731200,   4.16000,
,,,0.000931731600,   4.16000,
,,,0.000931732000,   4.16000,
,,,0.000931732400,   4.16000,
,,,0.000931732800,   4.24000,
,,,0.000931733200,   4.24000,
,,,0.000931733600,   4.24000,
,,,0.000931734000,   4.32000,
,,,0.000931734400,   4.32000,
,,,0.000931734800,   4.32000,
,,,0.000931735200,   4.32000,
,,,0.000931735600,   4.40000,
,,,0.000931736000,   4.48000,
,,,0.000931736400,   4.40000,
,,,0.000931736800,   4.40000,
,,,0.000931737200,   4.40000,
,,,0.000931737600,   4.40000,
,,,0.000931738000,   4.40000,
,,,0.000931738400,   4.40000,
,,,0.000931738800,   4.40000,
,,,0.000931739200,   4.40000,
,,,0.000931739600,   4.40000,
,,,0.000931740000,   4.40000,
,,,0.000931740400,   4.40000,
,,,0.000931740800,   4.40000,
,,,0.000931741200,   4.32000,
,,,0.000931741600,   4.32000,
,,,0.000931742000,   4.32000,
,,,0.000931742400,   4.24000,
,,,0.000931742800,   4.32000,
,,,0.000931743200,   4.32000,
,,,0.000931743600,   4.32000,
,,,0.000931744000,   4.40000,
,,,0.000931744400,   4.40000,
,,,0.000931744800,   4.40000,
,,,0.000931745200,   4.32000,
,,,0.000931745600,   4.32000,
,,,0.000931746000,   4.24000,
,,,0.000931746400,   4.24000,
,,,0.000931746800,   4.24000,
,,,0.000931747200,   4.24000,
,,,0.000931747600,   4.24000,
,,,0.000931748000,   4.24000,
,,,0.000931748400,   4.16000,
,,,0.000931748800,   4.16000,
,,,0.000931749200,   4.08000,
,,,0.000931749600,   4.00000,
,,,0.000931750000,   3.92000,
,,,0.000931750400,   3.92000,
,,,0.000931750800,   3.92000,
,,,0.000931751200,   3.92000,
,,,0.000931751600,   3.92000,
,,,0.000931752000,   3.84000,
,,,0.000931752400,   3.76000,
,,,0.000931752800,   3.76000,
,,,0.000931753200,   3.68000,
,,,0.000931753600,   3.68000,
,,,0.000931754000,   3.60000,
,,,0.000931754400,   3.52000,
,,,0.000931754800,   3.52000,
,,,0.000931755200,   3.44000,
,,,0.000931755600,   3.44000,
,,,0.000931756000,   3.36000,
,,,0.000931756400,   3.28000,
,,,0.000931756800,   3.28000,
,,,0.000931757200,   3.20000,
,,,0.000931757600,   3.20000,
,,,0.000931758000,   3.12000,
,,,0.000931758400,   3.12000,
,,,0.000931758800,   3.04000,
,,,0.000931759200,   2.88000,
,,,0.000931759600,   2.80000,
,,,0.000931760000,   2.72000,
,,,0.000931760400,   2.64000,
,,,0.000931760800,   2.64000,
,,,0.000931761200,   2.56000,
