Data/ALL0021/F0021CH1.CSV

Record Length,2.500000e+03,,   0.002546000000,   0.36000,
Sample Interval,1.000000e-07,,   0.002546100000,   0.40000,
Trigger Point,-2.546000000000e+04,,   0.002546200000,   0.36000,
,,,   0.002546300000,   0.36000,
,,,   0.002546400000,   0.36000,
,,,   0.002546500000,   0.40000,
Source,CH1,,   0.002546600000,   0.40000,
Vertical Units,V,,   0.002546700000,   0.40000,
Vertical Scale,1.000000e+00,,   0.002546800000,   0.40000,
Vertical Offset,4.000000e-02,,   0.002546900000,   0.36000,
Horizontal Units,s,,   0.002547000000,   0.40000,
Horizontal Scale,2.500000e-05,,   0.002547100000,   0.44000,
Pt Fmt,Y,,   0.002547200000,   0.44000,
Yzero,0.000000e+00,,   0.002547300000,   0.44000,
Probe Atten,1.000000e+00,,   0.002547400000,   0.40000,
Model Number,TDS2001C,,   0.002547500000,   0.40000,
Serial Number,C012347,,   0.002547600000,   0.44000,
Firmware Version,FV:v24.26,,   0.002547700000,   0.44000,
,,,0.002547800000,   0.44000,
,,,0.002547900000,   0.40000,
,,,0.002548000000,   0.44000,
,,,0.002548100000,   0.44000,
,,,0.002548200000,   0.44000,
,,,0.002548300000,   0.40000,
,,,0.002548400000,   0.44000,
,,,0.002548500000,   0.48000,
,,,0.002548600000,   0.44000,
,,,0.002548700000,   0.48000,
,,,0.002548800000,   0.44000,
,,,0.002548900000,   0.44000,
,,,0.002549000000,   0.48000,
,,,0.002549100000,   0.48000,
,,,0.002549200000,   0.52000,
,,,0.002549300000,   0.44000,
,,,0.002549400000,   0.44000,
,,,0.002549500000,   0.48000,
,,,0.002549600000,   0.52000,
,,,0.002549700000,   0.44000,
,,,0.002549800000,   0.48000,
,,,0.002549900000,   0.52000,
,,,0.002550000000,   0.52000,
,,,0.002550100000,   0.52000,
,,,0.002550200000,   0.44000,
,,,0.002550300000,   0.52000,
,,,0.002550400000,   0.48000,
,,,0.002550500000,   0.56000,
,,,0.002550600000,   0.48000,
,,,0.002550700000,   0.52000,
,,,0.002550800000,   0.56000,
,,,0.002550900000,   0.56000,
,,,0.002551000000,   0.56000,
,,,0.002551100000,   0.52000,
,,,0.002551200000,   0.56000,
,,,0.002551300000,   0.56000,
,,,0.002551400000,   0.52000,
,,,0.002551500000,   0.52000,
,,,0.002551600000,   0.56000,
,,,0.002551700000,   0.56000,
,,,0.002551800000,   0.56000,
,,,0.002551900000,   0.52000,
,,,0.002552000000,   0.56000,
,,,0.002552100000,   0.60000,
,,,0.002552200000,   0.56000,
,,,0.002552300000,   0.60000,
,,,0.002552400000,   0.60000,
,,,0.002552500000,   0.56000,
,,,0.002552600000,   0.56000,
,,,0.002552700000,   0.60000,
,,,0.002552800000,   0.56000,
,,,0.002552900000,   0.56000,
,,,0.002553000000,   0.56000,
,,,0.002553100000,   0.56000,
,,,0.002553200000,   0.56000,
,,,0.002553300000,   0.56000,
,,,0.002553400000,   0.56000,
,,,0.002553500000,   0.56000,
,,,0.002553600000,   0.60000,
,,,0.002553700000,   0.60000,
,,,0.002553800000,   0.56000,
,,,0.002553900000,   0.64000,
,,,0.002554000000,   0.56000,
,,,0.002554100000,   0.56000,
,,,0.002554200000,   0.56000,
,,,0.002554300000,   0.60000,
,,,0.002554400000,   0.56000,
,,,0.002554500000,   0.56000,
,,,0.002554600000,   0.60000,
,,,0.002554700000,   0.56000,
,,,0.002554800000,   0.56000,
,,,0.002554900000,   0.60000,
,,,0.002555000000,   0.56000,
,,,0.002555100000,   0.60000,
,,,0.002555200000,   0.56000,
,,,0.002555300000,   0.60000,
,,,0.002555400000,   0.64000,
,,,0.002555500000,   0.60000,
,,,0.002555600000,   0.60000,
,,,0.002555700000,   0.52000,
,,,0.002555800000,   0.60000,
,,,0.002555900000,   0.56000,
,,,0.002556000000,   0.60000,
,,,0.002556100000,   0.56000,
,,,0.002556200000,   0.56000,
,,,0.002556300000,   0.60000,
,,,0.002556400000,   0.60000,
,,,0.002556500000,   0.60000,
,,,0.002556600000,   0.56000,
,,,0.002556700000,   0.60000,
,,,0.002556800000,   0.56000,
,,,0.002556900000,   0.60000,
,,,0.002557000000,   0.56000,
,,,0.002557100000,   0.64000,
,,,0.002557200000,   0.60000,
,,,0.002557300000,   0.60000,
,,,0.002557400000,   0.56000,
,,,0.002557500000,   0.60000,
,,,0.002557600000,   0.56000,
,,,0.002557700000,   0.60000,
,,,0.002557800000,   0.56000,
,,,0.002557900000,   0.60000,
,,,0.002558000000,   0.56000,
,,,0.002558100000,   0.56000,
,,,0.002558200000,   0.60000,
,,,0.002558300000,   0.56000,
,,,0.002558400000,   0.56000,
,,,0.002558500000,   0.60000,
,,,0.002558600000,   0.56000,
,,,0.002558700000,   0.60000,
,,,0.002558800000,   0.56000,
,,,0.002558900000,   0.60000,
,,,0.002559000000,   0.64000,
,,,0.002559100000,   0.56000,
,,,0.002559200000,   0.60000,
,,,0.002559300000,   0.60000,
,,,0.002559400000,   0.60000,
,,,0.002559500000,   0.60000,
,,,0.002559600000,   0.56000,
,,,0.002559700000,   0.60000,
,,,0.002559800000,   0.60000,
,,,0.002559900000,   0.56000,
,,,0.002560000000,   0.60000,
,,,0.002560100000,   0.60000,
,,,0.002560200000,   0.56000,
,,,0.002560300000,   0.60000,
,,,0.002560400000,   0.60000,
,,,0.002560500000,   0.60000,
,,,0.002560600000,   0.60000,
,,,0.002560700000,   0.56000,
,,,0.002560800000,   0.56000,
,,,0.002560900000,   0.56000,
,,,0.002561000000,   0.60000,
,,,0.002561100000,   0.64000,
,,,0.002561200000,   0.60000,
,,,0.002561300000,   0.56000,
,,,0.002561400000,   0.56000,
,,,0.002561500000,   0.60000,
,,,0.002561600000,   0.56000,
,,,0.002561700000,   0.60000,
,,,0.002561800000,   0.56000,
,,,0.002561900000,   0.60000,
,,,0.002562000000,   0.60000,
,,,0.002562100000,   0.60000,
,,,0.002562200000,   0.60000,
,,,0.002562300000,   0.60000,
,,,0.002562400000,   0.60000,
,,,0.002562500000,   0.60000,
,,,0.002562600000,   0.60000,
,,,0.002562700000,   0.56000,
,,,0.002562800000,   0.56000,
,,,0.002562900000,   0.56000,
,,,0.002563000000,   0.56000,
,,,0.002563100000,   0.56000,
,,,0.002563200000,   0.56000,
,,,0.002563300000,   0.56000,
,,,0.002563400000,   0.56000,
,,,0.002563500000,   0.60000,
,,,0.002563600000,   0.56000,
,,,0.002563700000,   0.60000,
,,,0.002563800000,   0.56000,
,,,0.002563900000,   0.56000,
,,,0.002564000000,   0.56000,
,,,0.002564100000,   0.60000,
,,,0.002564200000,   0.60000,
,,,0.002564300000,   0.60000,
,,,0.002564400000,   0.60000,
,,,0.002564500000,   0.56000,
,,,0.002564600000,   0.60000,
,,,0.002564700000,   0.56000,
,,,0.002564800000,   0.60000,
,,,0.002564900000,   0.56000,
,,,0.002565000000,   0.60000,
,,,0.002565100000,   0.60000,
,,,0.002565200000,   0.64000,
,,,0.002565300000,   0.60000,
,,,0.002565400000,   0.60000,
,,,0.002565500000,   0.56000,
,,,0.002565600000,   0.56000,
,,,0.002565700000,   0.64000,
,,,0.002565800000,   0.56000,
,,,0.002565900000,   0.60000,
,,,0.002566000000,   0.60000,
,,,0.002566100000,   0.60000,
,,,0.002566200000,   0.56000,
,,,0.002566300000,   0.56000,
,,,0.002566400000,   0.64000,
,,,0.002566500000,   0.56000,
,,,0.002566600000,   0.56000,
,,,0.002566700000,   0.56000,
,,,0.002566800000,   0.56000,
,,,0.002566900000,   0.56000,
,,,0.002567000000,   0.56000,
,,,0.002567100000,   0.60000,
,,,0.002567200000,   0.60000,
,,,0.002567300000,   0.56000,
,,,0.002567400000,   0.60000,
,,,0.002567500000,   0.60000,
,,,0.002567600000,   0.56000,
,,,0.002567700000,   0.56000,
,,,0.002567800000,   0.56000,
,,,0.002567900000,   0.60000,
,,,0.002568000000,   0.60000,
,,,0.002568100000,   0.56000,
,,,0.002568200000,   0.56000,
,,,0.002568300000,   0.56000,
,,,0.002568400000,   0.60000,
,,,0.002568500000,   0.56000,
,,,0.002568600000,   0.60000,
,,,0.002568700000,   0.60000,
,,,0.002568800000,   0.56000,
,,,0.002568900000,   0.60000,
,,,0.002569000000,   0.60000,
,,,0.002569100000,   0.56000,
,,,0.002569200000,   0.64000,
,,,0.002569300000,   0.60000,
,,,0.002569400000,   0.60000,
,,,0.002569500000,   0.56000,
,,,0.002569600000,   0.56000,
,,,0.002569700000,   0.60000,
,,,0.002569800000,   0.60000,
,,,0.002569900000,   0.60000,
,,,0.002570000000,   0.60000,
,,,0.002570100000,   0.56000,
,,,0.002570200000,   0.60000,
,,,0.002570300000,   0.60000,
,,,0.002570400000,   0.60000,
,,,0.002570500000,   0.56000,
,,,0.002570600000,   0.64000,
,,,0.002570700000,   0.56000,
,,,0.002570800000,   0.56000,
,,,0.002570900000,   0.56000,
,,,0.002571000000,   0.60000,
,,,0.002571100000,   0.56000,
,,,0.002571200000,   0.56000,
,,,0.002571300000,   0.52000,
,,,0.002571400000,   0.60000,
,,,0.002571500000,   0.52000,
,,,0.002571600000,   0.60000,
,,,0.002571700000,   0.60000,
,,,0.002571800000,   0.56000,
,,,0.002571900000,   0.64000,
,,,0.002572000000,   0.60000,
,,,0.002572100000,   0.84000,
,,,0.002572200000,   1.44000,
,,,0.002572300000,   2.04000,
,,,0.002572400000,   2.28000,
,,,0.002572500000,   2.48000,
,,,0.002572600000,   2.40000,
,,,0.002572700000,   2.40000,
,,,0.002572800000,   2.40000,
,,,0.002572900000,   2.40000,
,,,0.002573000000,   2.36000,
,,,0.002573100000,   2.36000,
,,,0.002573200000,   2.36000,
,,,0.002573300000,   2.40000,
,,,0.002573400000,   2.40000,
,,,0.002573500000,   2.44000,
,,,0.002573600000,   2.44000,
,,,0.002573700000,   2.40000,
,,,0.002573800000,   2.44000,
,,,0.002573900000,   2.40000,
,,,0.002574000000,   2.40000,
,,,0.002574100000,   2.36000,
,,,0.002574200000,   2.36000,
,,,0.002574300000,   2.40000,
,,,0.002574400000,   2.40000,
,,,0.002574500000,   2.44000,
,,,0.002574600000,   2.44000,
,,,0.002574700000,   2.44000,
,,,0.002574800000,   2.36000,
,,,0.002574900000,   2.40000,
,,,0.002575000000,   2.40000,
,,,0.002575100000,   2.40000,
,,,0.002575200000,   2.40000,
,,,0.002575300000,   2.32000,
,,,0.002575400000,   2.24000,
,,,0.002575500000,   2.16000,
,,,0.002575600000,   2.16000,
,,,0.002575700000,   2.04000,
,,,0.002575800000,   2.04000,
,,,0.002575900000,   2.00000,
,,,0.002576000000,   1.92000,
,,,0.002576100000,   1.80000,
,,,0.002576200000,   1.72000,
,,,0.002576300000,   1.76000,
,,,0.002576400000,   1.68000,
,,,0.002576500000,   1.60000,
,,,0.002576600000,   1.56000,
,,,0.002576700000,   1.48000,
,,,0.002576800000,   1.48000,
,,,0.002576900000,   1.40000,
,,,0.002577000000,   1.32000,
,,,0.002577100000,   1.28000,
,,,0.002577200000,   1.24000,
,,,0.002577300000,   1.20000,
,,,0.002577400000,   1.12000,
,,,0.002577500000,   1.12000,
,,,0.002577600000,   1.00000,
,,,0.002577700000,   1.00000,
,,,0.002577800000,   1.04000,
,,,0.002577900000,   1.00000,
,,,0.002578000000,   1.08000,
,,,0.002578100000,   1.08000,
,,,0.002578200000,   1.08000,
,,,0.002578300000,   1.04000,
,,,0.002578400000,   1.04000,
,,,0.002578500000,   1.04000,
,,,0.002578600000,   1.04000,
,,,0.002578700000,   1.04000,
,,,0.002578800000,   1.04000,
,,,0.002578900000,   1.04000,
,,,0.002579000000,   1.00000,
,,,0.002579100000,   1.00000,
,,,0.002579200000,   1.04000,
,,,0.002579300000,   1.04000,
,,,0.002579400000,   0.96000,
,,,0.002579500000,   1.00000,
,,,0.002579600000,   1.00000,
,,,0.002579700000,   1.00000,
,,,0.002579800000,   1.00000,
,,,0.002579900000,   0.96000,
,,,0.002580000000,   1.00000,
,,,0.002580100000,   0.96000,
,,,0.002580200000,   1.04000,
,,,0.002580300000,   1.00000,
,,,0.002580400000,   1.00000,
,,,0.002580500000,   0.96000,
,,,0.002580600000,   1.00000,
,,,0.002580700000,   0.96000,
,,,0.002580800000,   1.00000,
,,,0.002580900000,   1.00000,
,,,0.002581000000,   1.00000,
,,,0.002581100000,   0.92000,
,,,0.002581200000,   0.92000,
,,,0.002581300000,   0.96000,
,,,0.002581400000,   0.92000,
,,,0.002581500000,   0.96000,
,,,0.002581600000,   0.92000,
,,,0.002581700000,   0.96000,
,,,0.002581800000,   0.96000,
,,,0.002581900000,   0.92000,
,,,0.002582000000,   0.88000,
,,,0.002582100000,   0.92000,
,,,0.002582200000,   0.92000,
,,,0.002582300000,   0.92000,
,,,0.002582400000,   0.92000,
,,,0.002582500000,   0.92000,
,,,0.002582600000,   0.84000,
,,,0.002582700000,   0.84000,
,,,0.002582800000,   0.92000,
,,,0.002582900000,   0.92000,
,,,0.002583000000,   0.88000,
,,,0.002583100000,   0.88000,
,,,0.002583200000,   0.84000,
,,,0.002583300000,   0.88000,
,,,0.002583400000,   0.88000,
,,,0.002583500000,   0.88000,
,,,0.002583600000,   0.88000,
,,,0.002583700000,   0.84000,
,,,0.002583800000,   0.84000,
,,,0.002583900000,   0.84000,
,,,0.002584000000,   0.84000,
,,,0.002584100000,   0.88000,
,,,0.002584200000,   0.88000,
,,,0.002584300000,   0.84000,
,,,0.002584400000,   0.84000,
,,,0.002584500000,   0.84000,
,,,0.002584600000,   0.84000,
,,,0.002584700000,   0.80000,
,,,0.002584800000,   0.80000,
,,,0.002584900000,   0.80000,
,,,0.002585000000,   0.80000,
,,,0.002585100000,   0.84000,
,,,0.002585200000,   0.84000,
,,,0.002585300000,   0.76000,
,,,0.002585400000,   0.76000,
,,,0.002585500000,   0.80000,
,,,0.002585600000,   0.72000,
,,,0.002585700000,   0.80000,
,,,0.002585800000,   0.80000,
,,,0.002585900000,   0.80000,
,,,0.002586000000,   0.72000,
,,,0.002586100000,   0.80000,
,,,0.002586200000,   0.80000,
,,,0.002586300000,   0.76000,
,,,0.002586400000,   0.76000,
,,,0.002586500000,   0.76000,
,,,0.002586600000,   0.80000,
,,,0.002586700000,   0.76000,
,,,0.002586800000,   0.76000,
,,,0.002586900000,   0.76000,
,,,0.002587000000,   0.76000,
,,,0.002587100000,   0.72000,
,,,0.002587200000,   0.76000,
,,,0.002587300000,   0.76000,
,,,0.002587400000,   0.76000,
,,,0.002587500000,   0.72000,
,,,0.002587600000,   0.76000,
,,,0.002587700000,   0.72000,
,,,0.002587800000,   0.76000,
,,,0.002587900000,   0.72000,
,,,0.002588000000,   0.72000,
,,,0.002588100000,   0.68000,
,,,0.002588200000,   0.72000,
,,,0.002588300000,   0.68000,
,,,0.002588400000,   0.76000,
,,,0.002588500000,   0.68000,
,,,0.002588600000,   0.68000,
,,,0.002588700000,   0.68000,
,,,0.002588800000,   0.68000,
,,,0.002588900000,   0.68000,
,,,0.002589000000,   0.68000,
,,,0.002589100000,   0.68000,
,,,0.002589200000,   0.64000,
,,,0.002589300000,   0.64000,
,,,0.002589400000,   0.64000,
,,,0.002589500000,   0.68000,
,,,0.002589600000,   0.68000,
,,,0.002589700000,   0.64000,
,,,0.002589800000,   0.64000,
,,,0.002589900000,   0.60000,
,,,0.002590000000,   0.60000,
,,,0.002590100000,   0.64000,
,,,0.002590200000,   0.68000,
,,,0.002590300000,   0.68000,
,,,0.002590400000,   0.64000,
,,,0.002590500000,   0.64000,
,,,0.002590600000,   0.64000,
,,,0.002590700000,   0.64000,
,,,0.002590800000,   0.64000,
,,,0.002590900000,   0.64000,
,,,0.002591000000,   0.56000,
,,,0.002591100000,   0.56000,
,,,0.002591200000,   0.60000,
,,,0.002591300000,   0.56000,
,,,0.002591400000,   0.56000,
,,,0.002591500000,   0.56000,
,,,0.002591600000,   0.60000,
,,,0.002591700000,   0.64000,
,,,0.002591800000,   0.64000,
,,,0.002591900000,   0.60000,
,,,0.002592000000,   0.56000,
,,,0.002592100000,   0.56000,
,,,0.002592200000,   0.52000,
,,,0.002592300000,   0.56000,
,,,0.002592400000,   0.52000,
,,,0.002592500000,   0.56000,
,,,0.002592600000,   0.52000,
,,,0.002592700000,   0.56000,
,,,0.002592800000,   0.52000,
,,,0.002592900000,   0.52000,
,,,0.002593000000,   0.52000,
,,,0.002593100000,   0.52000,
,,,0.002593200000,   0.52000,
,,,0.002593300000,   0.52000,
,,,0.002593400000,   0.52000,
,,,0.002593500000,   0.52000,
,,,0.002593600000,   0.52000,
,,,0.002593700000,   0.48000,
,,,0.002593800000,   0.56000,
,,,0.002593900000,   0.52000,
,,,0.002594000000,   0.48000,
,,,0.002594100000,   0.52000,
,,,0.002594200000,   0.48000,
,,,0.002594300000,   0.48000,
,,,0.002594400000,   0.48000,
,,,0.002594500000,   0.48000,
,,,0.002594600000,   0.44000,
,,,0.002594700000,   0.48000,
,,,0.002594800000,   0.44000,
,,,0.002594900000,   0.44000,
,,,0.002595000000,   0.48000,
,,,0.002595100000,   0.52000,
,,,0.002595200000,   0.48000,
,,,0.002595300000,   0.44000,
,,,0.002595400000,   0.44000,
,,,0.002595500000,   0.44000,
,,,0.002595600000,   0.44000,
,,,0.002595700000,   0.44000,
,,,0.002595800000,   0.40000,
,,,0.002595900000,   0.44000,
,,,0.002596000000,   0.44000,
,,,0.002596100000,   0.44000,
,,,0.002596200000,   0.44000,
,,,0.002596300000,   0.44000,
,,,0.002596400000,   0.44000,
,,,0.002596500000,   0.40000,
,,,0.002596600000,   0.44000,
,,,0.002596700000,   0.40000,
,,,0.002596800000,   0.40000,
,,,0.002596900000,   0.40000,
,,,0.002597000000,   0.36000,
,,,0.002597100000,   0.40000,
,,,0.002597200000,   0.40000,
,,,0.002597300000,   0.40000,
,,,0.002597400000,   0.36000,
,,,0.002597500000,   0.36000,
,,,0.002597600000,   0.40000,
,,,0.002597700000,   0.36000,
,,,0.002597800000,   0.36000,
,,,0.002597900000,   0.36000,
,,,0.002598000000,   0.40000,
,,,0.002598100000,   0.36000,
,,,0.002598200000,   0.36000,
,,,0.002598300000,   0.32000,
,,,0.002598400000,   0.36000,
,,,0.002598500000,   0.32000,
,,,0.002598600000,   0.32000,
,,,0.002598700000,   0.32000,
,,,0.002598800000,   0.32000,
,,,0.002598900000,   0.36000,
,,,0.002599000000,   0.36000,
,,,0.002599100000,   0.40000,
,,,0.002599200000,   0.28000,
,,,0.002599300000,   0.28000,
,,,0.002599400000,   0.32000,
,,,0.002599500000,   0.32000,
,,,0.002599600000,   0.32000,
,,,0.002599700000,   0.28000,
,,,0.002599800000,   0.32000,
,,,0.002599900000,   0.32000,
,,,0.002600000000,   0.32000,
,,,0.002600100000,   0.28000,
,,,0.002600200000,   0.32000,
,,,0.002600300000,   0.28000,
,,,0.002600400000,   0.28000,
,,,0.002600500000,   0.28000,
,,,0.002600600000,   0.28000,
,,,0.002600700000,   0.28000,
,,,0.002600800000,   0.28000,
,,,0.002600900000,   0.28000,
,,,0.002601000000,   0.24000,
,,,0.002601100000,   0.24000,
,,,0.002601200000,   0.24000,
,,,0.002601300000,   0.24000,
,,,0.002601400000,   0.28000,
,,,0.002601500000,   0.24000,
,,,0.002601600000,   0.24000,
,,,0.002601700000,   0.28000,
,,,0.002601800000,   0.28000,
,,,0.002601900000,   0.28000,
,,,0.002602000000,   0.20000,
,,,0.002602100000,   0.24000,
,,,0.002602200000,   0.20000,
,,,0.002602300000,   0.12000,
,,,0.002602400000,   0.20000,
,,,0.002602500000,   0.16000,
,,,0.002602600000,   0.20000,
,,,0.002602700000,   0.20000,
,,,0.002602800000,   0.20000,
,,,0.002602900000,   0.24000,
,,,0.002603000000,   0.20000,
,,,0.002603100000,   0.16000,
,,,0.002603200000,   0.20000,
,,,0.002603300000,   0.16000,
,,,0.002603400000,   0.20000,
,,,0.002603500000,   0.20000,
,,,0.002603600000,   0.16000,
,,,0.002603700000,   0.20000,
,,,0.002603800000,   0.16000,
,,,0.002603900000,   0.20000,
,,,0.002604000000,   0.12000,
,,,0.002604100000,   0.12000,
,,,0.002604200000,   0.12000,
,,,0.002604300000,   0.16000,
,,,0.002604400000,   0.16000,
,,,0.002604500000,   0.12000,
,,,0.002604600000,   0.12000,
,,,0.002604700000,   0.12000,
,,,0.002604800000,   0.12000,
,,,0.002604900000,   0.12000,
,,,0.002605000000,   0.12000,
,,,0.002605100000,   0.12000,
,,,0.002605200000,   0.08000,
,,,0.002605300000,   0.08000,
,,,0.002605400000,   0.08000,
,,,0.002605500000,   0.12000,
,,,0.002605600000,   0.08000,
,,,0.002605700000,   0.12000,
,,,0.002605800000,   0.08000,
,,,0.002605900000,   0.08000,
,,,0.002606000000,   0.08000,
,,,0.002606100000,   0.08000,
,,,0.002606200000,   0.08000,
,,,0.002606300000,   0.04000,
,,,0.002606400000,   0.08000,
,,,0.002606500000,   0.04000,
,,,0.002606600000,   0.08000,
,,,0.002606700000,   0.08000,
,,,0.002606800000,   0.04000,
,,,0.002606900000,   0.04000,
,,,0.002607000000,   0.04000,
,,,0.002607100000,   0.04000,
,,,0.002607200000,   0.04000,
,,,0.002607300000,   0.04000,
,,,0.002607400000,   0.04000,
,,,0.002607500000,   0.00000,
,,,0.002607600000,   0.04000,
,,,0.002607700000,   0.00000,
,,,0.002607800000,   0.00000,
,,,0.002607900000,   0.00000,
,,,0.002608000000,   0.00000,
,,,0.002608100000,   0.00000,
,,,0.002608200000,   0.04000,
,,,0.002608300000,   0.04000,
,,,0.002608400000,   0.00000,
,,,0.002608500000,   0.00000,
,,,0.002608600000,   0.00000,
,,,0.002608700000,   0.00000,
,,,0.002608800000,   0.00000,
,,,0.002608900000,   0.00000,
,,,0.002609000000,   0.00000,
,,,0.002609100000,  -0.04000,
,,,0.002609200000,  -0.04000,
,,,0.002609300000,   0.00000,
,,,0.002609400000,  -0.04000,
,,,0.002609500000,   0.00000,
,,,0.002609600000,  -0.04000,
,,,0.002609700000,   0.00000,
,,,0.002609800000,  -0.04000,
,,,0.002609900000,  -0.08000,
,,,0.002610000000,  -0.04000,
,,,0.002610100000,  -0.08000,
,,,0.002610200000,  -0.04000,
,,,0.002610300000,  -0.08000,
,,,0.002610400000,  -0.08000,
,,,0.002610500000,  -0.08000,
,,,0.002610600000,  -0.04000,
,,,0.002610700000,  -0.08000,
,,,0.002610800000,  -0.08000,
,,,0.002610900000,  -0.12000,
,,,0.002611000000,  -0.08000,
,,,0.002611100000,  -0.12000,
,,,0.002611200000,  -0.08000,
,,,0.002611300000,  -0.08000,
