Data/ALL0021/F0021CH2.CSV

Record Length,2.500000e+03,,   0.002546000000,  -3.52000,
Sample Interval,1.000000e-07,,   0.002546100000,  -3.60000,
Trigger Point,-2.546000000000e+04,,   0.002546200000,  -3.52000,
,,,   0.002546300000,  -3.52000,
,,,   0.002546400000,  -3.52000,
,,,   0.002546500000,  -3.52000,
Source,CH2,,   0.002546600000,  -3.52000,
Vertical Units,V,,   0.002546700000,  -3.52000,
Vertical Scale,2.000000e+00,,   0.002546800000,  -3.60000,
Vertical Offset,8.000000e-01,,   0.002546900000,  -3.52000,
Horizontal Units,s,,   0.002547000000,  -3.52000,
Horizontal Scale,2.500000e-05,,   0.002547100000,  -3.52000,
Pt Fmt,Y,,   0.002547200000,  -3.60000,
Yzero,0.000000e+00,,   0.002547300000,  -3.52000,
Probe Atten,1.000000e+00,,   0.002547400000,  -3.60000,
Model Number,TDS2001C,,   0.002547500000,  -3.52000,
Serial Number,C012347,,   0.002547600000,  -3.60000,
Firmware Version,FV:v24.26,,   0.002547700000,  -3.52000,
,,,0.002547800000,  -3.52000,
,,,0.002547900000,  -3.52000,
,,,0.002548000000,  -3.60000,
,,,0.002548100000,  -3.60000,
,,,0.002548200000,  -3.44000,
,,,0.002548300000,  -3.52000,
,,,0.002548400000,  -3.60000,
,,,0.002548500000,  -3.44000,
,,,0.002548600000,  -3.52000,
,,,0.002548700000,  -3.60000,
,,,0.002548800000,  -3.52000,
,,,0.002548900000,  -3.52000,
,,,0.002549000000,  -3.44000,
,,,0.002549100000,  -3.60000,
,,,0.002549200000,  -3.60000,
,,,0.002549300000,  -3.52000,
,,,0.002549400000,  -3.60000,
,,,0.002549500000,  -3.52000,
,,,0.002549600000,  -3.60000,
,,,0.002549700000,  -3.52000,
,,,0.002549800000,  -3.60000,
,,,0.002549900000,  -3.52000,
,,,0.002550000000,  -3.52000,
,,,0.002550100000,  -3.52000,
,,,0.002550200000,  -3.60000,
,,,0.002550300000,  -3.52000,
,,,0.002550400000,  -3.52000,
,,,0.002550500000,  -3.52000,
,,,0.002550600000,  -3.60000,
,,,0.002550700000,  -3.60000,
,,,0.002550800000,  -3.60000,
,,,0.002550900000,  -3.44000,
,,,0.002551000000,  -3.52000,
,,,0.002551100000,  -3.52000,
,,,0.002551200000,  -3.60000,
,,,0.002551300000,  -3.60000,
,,,0.002551400000,  -3.52000,
,,,0.002551500000,  -3.52000,
,,,0.002551600000,  -3.68000,
,,,0.002551700000,  -3.52000,
,,,0.002551800000,  -3.52000,
,,,0.002551900000,  -3.60000,
,,,0.002552000000,  -3.44000,
,,,0.002552100000,  -3.52000,
,,,0.002552200000,  -3.52000,
,,,0.002552300000,  -3.52000,
,,,0.002552400000,  -3.60000,
,,,0.002552500000,  -3.60000,
,,,0.002552600000,  -3.52000,
,,,0.002552700000,  -3.52000,
,,,0.002552800000,  -3.60000,
,,,0.002552900000,  -3.52000,
,,,0.002553000000,  -3.52000,
,,,0.002553100000,  -3.60000,
,,,0.002553200000,  -3.52000,
,,,0.002553300000,  -3.52000,
,,,0.002553400000,  -3.52000,
,,,0.002553500000,  -3.52000,
,,,0.002553600000,  -3.52000,
,,,0.002553700000,  -3.60000,
,,,0.002553800000,  -3.60000,
,,,0.002553900000,  -3.52000,
,,,0.002554000000,  -3.52000,
,,,0.002554100000,  -3.52000,
,,,0.002554200000,  -3.44000,
,,,0.002554300000,  -3.52000,
,,,0.002554400000,  -3.60000,
,,,0.002554500000,  -3.60000,
,,,0.002554600000,  -3.52000,
,,,0.002554700000,  -3.52000,
,,,0.002554800000,  -3.60000,
,,,0.002554900000,  -3.52000,
,,,0.002555000000,  -3.52000,
,,,0.002555100000,  -3.60000,
,,,0.002555200000,  -3.52000,
,,,0.002555300000,  -3.52000,
,,,0.002555400000,  -3.52000,
,,,0.002555500000,  -3.52000,
,,,0.002555600000,  -3.52000,
,,,0.002555700000,  -3.44000,
,,,0.002555800000,  -3.52000,
,,,0.002555900000,  -3.52000,
,,,0.002556000000,  -3.52000,
,,,0.002556100000,  -3.52000,
,,,0.002556200000,  -3.52000,
,,,0.002556300000,  -3.52000,
,,,0.002556400000,  -3.52000,
,,,0.002556500000,  -3.52000,
,,,0.002556600000,  -3.60000,
,,,0.002556700000,  -3.52000,
,,,0.002556800000,  -3.52000,
,,,0.002556900000,  -3.52000,
,,,0.002557000000,  -3.52000,
,,,0.002557100000,  -3.52000,
,,,0.002557200000,  -3.52000,
,,,0.002557300000,  -3.52000,
,,,0.002557400000,  -3.52000,
,,,0.002557500000,  -3.60000,
,,,0.002557600000,  -3.52000,
,,,0.002557700000,  -3.52000,
,,,0.002557800000,  -3.52000,
,,,0.002557900000,  -3.60000,
,,,0.002558000000,  -3.52000,
,,,0.002558100000,  -3.60000,
,,,0.002558200000,  -3.60000,
,,,0.002558300000,  -3.52000,
,,,0.002558400000,  -3.52000,
,,,0.002558500000,  -3.60000,
,,,0.002558600000,  -3.44000,
,,,0.002558700000,  -3.52000,
,,,0.002558800000,  -3.52000,
,,,0.002558900000,  -3.52000,
,,,0.002559000000,  -3.60000,
,,,0.002559100000,  -3.60000,
,,,0.002559200000,  -3.52000,
,,,0.002559300000,  -3.52000,
,,,0.002559400000,  -3.52000,
,,,0.002559500000,  -3.52000,
,,,0.002559600000,  -3.52000,
,,,0.002559700000,  -3.52000,
,,,0.002559800000,  -3.52000,
,,,0.002559900000,  -3.52000,
,,,0.002560000000,  -3.60000,
,,,0.002560100000,  -3.60000,
,,,0.002560200000,  -3.52000,
,,,0.002560300000,  -3.52000,
,,,0.002560400000,  -3.60000,
,,,0.002560500000,  -3.52000,
,,,0.002560600000,  -3.52000,
,,,0.002560700000,  -3.52000,
,,,0.002560800000,  -3.52000,
,,,0.002560900000,  -3.60000,
,,,0.002561000000,  -3.52000,
,,,0.002561100000,  -3.60000,
,,,0.002561200000,  -3.60000,
,,,0.002561300000,  -3.52000,
,,,0.002561400000,  -3.52000,
,,,0.002561500000,  -3.52000,
,,,0.002561600000,  -3.44000,
,,,0.002561700000,  -3.52000,
,,,0.002561800000,  -3.60000,
,,,0.002561900000,  -3.52000,
,,,0.002562000000,  -3.52000,
,,,0.002562100000,  -3.52000,
,,,0.002562200000,  -3.60000,
,,,0.002562300000,  -3.52000,
,,,0.002562400000,  -3.52000,
,,,0.002562500000,  -3.52000,
,,,0.002562600000,  -3.52000,
,,,0.002562700000,  -3.52000,
,,,0.002562800000,  -3.52000,
,,,0.002562900000,  -3.52000,
,,,0.002563000000,  -3.52000,
,,,0.002563100000,  -3.60000,
,,,0.002563200000,  -3.60000,
,,,0.002563300000,  -3.52000,
,,,0.002563400000,  -3.52000,
,,,0.002563500000,  -3.44000,
,,,0.002563600000,  -3.52000,
,,,0.002563700000,  -3.52000,
,,,0.002563800000,  -3.52000,
,,,0.002563900000,  -3.52000,
,,,0.002564000000,  -3.60000,
,,,0.002564100000,  -3.60000,
,,,0.002564200000,  -3.52000,
,,,0.002564300000,  -3.52000,
,,,0.002564400000,  -3.60000,
,,,0.002564500000,  -3.52000,
,,,0.002564600000,  -3.52000,
,,,0.002564700000,  -3.60000,
,,,0.002564800000,  -3.60000,
,,,0.002564900000,  -3.52000,
,,,0.002565000000,  -3.60000,
,,,0.002565100000,  -3.44000,
,,,0.002565200000,  -3.52000,
,,,0.002565300000,  -3.52000,
,,,0.002565400000,  -3.52000,
,,,0.002565500000,  -3.52000,
,,,0.002565600000,  -3.60000,
,,,0.002565700000,  -3.52000,
,,,0.002565800000,  -3.44000,
,,,0.002565900000,  -3.52000,
,,,0.002566000000,  -3.52000,
,,,0.002566100000,  -3.44000,
,,,0.002566200000,  -3.52000,
,,,0.002566300000,  -3.44000,
,,,0.002566400000,  -3.52000,
,,,0.002566500000,  -3.52000,
,,,0.002566600000,  -3.52000,
,,,0.002566700000,  -3.52000,
,,,0.002566800000,  -3.52000,
,,,0.002566900000,  -3.52000,
,,,0.002567000000,  -3.52000,
,,,0.002567100000,  -3.52000,
,,,0.002567200000,  -3.60000,
,,,0.002567300000,  -3.52000,
,,,0.002567400000,  -3.52000,
,,,0.002567500000,  -3.52000,
,,,0.002567600000,  -3.52000,
,,,0.002567700000,  -3.52000,
,,,0.002567800000,  -3.60000,
,,,0.002567900000,  -3.44000,
,,,0.002568000000,  -3.60000,
,,,0.002568100000,  -3.52000,
,,,0.002568200000,  -3.52000,
,,,0.002568300000,  -3.52000,
,,,0.002568400000,  -3.52000,
,,,0.002568500000,  -3.52000,
,,,0.002568600000,  -3.52000,
,,,0.002568700000,  -3.52000,
,,,0.002568800000,  -3.52000,
,,,0.002568900000,  -3.52000,
,,,0.002569000000,  -3.52000,
,,,0.002569100000,  -3.52000,
,,,0.002569200000,  -3.52000,
,,,0.002569300000,  -3.52000,
,,,0.002569400000,  -3.60000,
,,,0.002569500000,  -3.52000,
,,,0.002569600000,  -3.60000,
,,,0.002569700000,  -3.52000,
,,,0.002569800000,  -3.44000,
,,,0.002569900000,  -3.52000,
,,,0.002570000000,  -3.52000,
,,,0.002570100000,  -3.52000,
,,,0.002570200000,  -3.52000,
,,,0.002570300000,  -3.52000,
,,,0.002570400000,  -3.60000,
,,,0.002570500000,  -3.60000,
,,,0.002570600000,  -3.52000,
,,,0.002570700000,  -3.52000,
,,,0.002570800000,  -3.60000,
,,,0.002570900000,  -3.44000,
,,,0.002571000000,  -3.60000,
,,,0.002571100000,  -3.52000,
,,,0.002571200000,  -3.44000,
,,,0.002571300000,  -3.44000,
,,,0.002571400000,  -3.60000,
,,,0.002571500000,  -3.44000,
,,,0.002571600000,  -3.44000,
,,,0.002571700000,  -3.60000,
,,,0.002571800000,  -3.52000,
,,,0.002571900000,  -3.60000,
,,,0.002572000000,  -3.60000,
,,,0.002572100000,   3.76000,
,,,0.002572200000,   3.44000,
,,,0.002572300000,   3.60000,
,,,0.002572400000,   3.60000,
,,,0.002572500000,   3.60000,
,,,0.002572600000,   3.52000,
,,,0.002572700000,   3.52000,
,,,0.002572800000,   3.68000,
,,,0.002572900000,   3.60000,
,,,0.002573000000,   3.60000,
,,,0.002573100000,   3.60000,
,,,0.002573200000,   3.52000,
,,,0.002573300000,   3.52000,
,,,0.002573400000,   3.52000,
,,,0.002573500000,   3.60000,
,,,0.002573600000,   3.60000,
,,,0.002573700000,   3.52000,
,,,0.002573800000,   3.60000,
,,,0.002573900000,   3.52000,
,,,0.002574000000,   3.60000,
,,,0.002574100000,   3.60000,
,,,0.002574200000,   3.60000,
,,,0.002574300000,   3.60000,
,,,0.002574400000,   3.60000,
,,,0.002574500000,   3.60000,
,,,0.002574600000,   3.52000,
,,,0.002574700000,   3.60000,
,,,0.002574800000,   3.60000,
,,,0.002574900000,   3.60000,
,,,0.002575000000,   3.60000,
,,,0.002575100000,   3.60000,
,,,0.002575200000,   3.68000,
,,,0.002575300000,   3.60000,
,,,0.002575400000,   3.60000,
,,,0.002575500000,   3.60000,
,,,0.002575600000,   3.60000,
,,,0.002575700000,   3.68000,
,,,0.002575800000,   3.60000,
,,,0.002575900000,   3.60000,
,,,0.002576000000,   3.60000,
,,,0.002576100000,   3.60000,
,,,0.002576200000,   3.68000,
,,,0.002576300000,   3.68000,
,,,0.002576400000,   3.60000,
,,,0.002576500000,   3.60000,
,,,0.002576600000,   3.68000,
,,,0.002576700000,   3.60000,
,,,0.002576800000,   3.60000,
,,,0.002576900000,   3.60000,
,,,0.002577000000,   3.52000,
,,,0.002577100000,   3.68000,
,,,0.002577200000,   3.60000,
,,,0.002577300000,   3.52000,
,,,0.002577400000,   3.52000,
,,,0.002577500000,   3.68000,
,,,0.002577600000,   3.60000,
,,,0.002577700000,   3.68000,
,,,0.002577800000,   3.68000,
,,,0.002577900000,   3.60000,
,,,0.002578000000,   3.68000,
,,,0.002578100000,   3.68000,
,,,0.002578200000,   3.60000,
,,,0.002578300000,   3.68000,
,,,0.002578400000,   3.76000,
,,,0.002578500000,   3.68000,
,,,0.002578600000,   3.60000,
,,,0.002578700000,   3.68000,
,,,0.002578800000,   3.60000,
,,,0.002578900000,   3.68000,
,,,0.002579000000,   3.76000,
,,,0.002579100000,   3.60000,
,,,0.002579200000,   3.76000,
,,,0.002579300000,   3.60000,
,,,0.002579400000,   3.68000,
,,,0.002579500000,   3.68000,
,,,0.002579600000,   3.60000,
,,,0.002579700000,   3.68000,
,,,0.002579800000,   3.60000,
,,,0.002579900000,   3.60000,
,,,0.002580000000,   3.52000,
,,,0.002580100000,   3.68000,
,,,0.002580200000,   3.68000,
,,,0.002580300000,   3.68000,
,,,0.002580400000,   3.60000,
,,,0.002580500000,   3.68000,
,,,0.002580600000,   3.68000,
,,,0.002580700000,   3.60000,
,,,0.002580800000,   3.60000,
,,,0.002580900000,   3.60000,
,,,0.002581000000,   3.52000,
,,,0.002581100000,   3.60000,
,,,0.002581200000,   3.60000,
,,,0.002581300000,   3.76000,
,,,0.002581400000,   3.68000,
,,,0.002581500000,   3.60000,
,,,0.002581600000,   3.68000,
,,,0.002581700000,   3.76000,
,,,0.002581800000,   3.60000,
,,,0.002581900000,   3.68000,
,,,0.002582000000,   3.68000,
,,,0.002582100000,   3.68000,
,,,0.002582200000,   3.60000,
,,,0.002582300000,   3.68000,
,,,0.002582400000,   3.68000,
,,,0.002582500000,   3.68000,
,,,0.002582600000,   3.68000,
,,,0.002582700000,   3.68000,
,,,0.002582800000,   3.68000,
,,,0.002582900000,   3.68000,
,,,0.002583000000,   3.68000,
,,,0.002583100000,   3.60000,
,,,0.002583200000,   3.60000,
,,,0.002583300000,   3.60000,
,,,0.002583400000,   3.68000,
,,,0.002583500000,   3.60000,
,,,0.002583600000,   3.60000,
,,,0.002583700000,   3.68000,
,,,0.002583800000,   3.60000,
,,,0.002583900000,   3.68000,
,,,0.002584000000,   3.60000,
,,,0.002584100000,   3.68000,
,,,0.002584200000,   3.60000,
,,,0.002584300000,   3.68000,
,,,0.002584400000,   3.60000,
,,,0.002584500000,   3.76000,
,,,0.002584600000,   3.68000,
,,,0.002584700000,   3.68000,
,,,0.002584800000,   3.68000,
,,,0.002584900000,   3.76000,
,,,0.002585000000,   3.68000,
,,,0.002585100000,   3.68000,
,,,0.002585200000,   3.68000,
,,,0.002585300000,   3.68000,
,,,0.002585400000,   3.60000,
,,,0.002585500000,   3.68000,
,,,0.002585600000,   3.68000,
,,,0.002585700000,   3.68000,
,,,0.002585800000,   3.68000,
,,,0.002585900000,   3.68000,
,,,0.002586000000,   3.60000,
,,,0.002586100000,   3.68000,
,,,0.002586200000,   3.68000,
,,,0.002586300000,   3.68000,
,,,0.002586400000,   3.68000,
,,,0.002586500000,   3.68000,
,,,0.002586600000,   3.68000,
,,,0.002586700000,   3.60000,
,,,0.002586800000,   3.52000,
,,,0.002586900000,   3.68000,
,,,0.002587000000,   3.68000,
,,,0.002587100000,   3.68000,
,,,0.002587200000,   3.68000,
,,,0.002587300000,   3.60000,
,,,0.002587400000,   3.68000,
,,,0.002587500000,   3.68000,
,,,0.002587600000,   3.60000,
,,,0.002587700000,   3.76000,
,,,0.002587800000,   3.60000,
,,,0.002587900000,   3.68000,
,,,0.002588000000,   3.76000,
,,,0.002588100000,   3.68000,
,,,0.002588200000,   3.60000,
,,,0.002588300000,   3.60000,
,,,0.002588400000,   3.68000,
,,,0.002588500000,   3.60000,
,,,0.002588600000,   3.68000,
,,,0.002588700000,   3.68000,
,,,0.002588800000,   3.60000,
,,,0.002588900000,   3.68000,
,,,0.002589000000,   3.68000,
,,,0.002589100000,   3.68000,
,,,0.002589200000,   3.68000,
,,,0.002589300000,   3.68000,
,,,0.002589400000,   3.68000,
,,,0.002589500000,   3.68000,
,,,0.002589600000,   3.68000,
,,,0.002589700000,   3.60000,
,,,0.002589800000,   3.60000,
,,,0.002589900000,   3.60000,
,,,0.002590000000,   3.68000,
,,,0.002590100000,   3.68000,
,,,0.002590200000,   3.60000,
,,,0.002590300000,   3.68000,
,,,0.002590400000,   3.60000,
,,,0.002590500000,   3.68000,
,,,0.002590600000,   3.68000,
,,,0.002590700000,   3.60000,
,,,0.002590800000,   3.68000,
,,,0.002590900000,   3.52000,
,,,0.002591000000,   3.60000,
,,,0.002591100000,   3.68000,
,,,0.002591200000,   3.76000,
,,,0.002591300000,   3.68000,
,,,0.002591400000,   3.76000,
,,,0.002591500000,   3.60000,
,,,0.002591600000,   3.76000,
,,,0.002591700000,   3.68000,
,,,0.002591800000,   3.68000,
,,,0.002591900000,   3.68000,
,,,0.002592000000,   3.68000,
,,,0.002592100000,   3.60000,
,,,0.002592200000,   3.76000,
,,,0.002592300000,   3.76000,
,,,0.002592400000,   3.68000,
,,,0.002592500000,   3.60000,
,,,0.002592600000,   3.68000,
,,,0.002592700000,   3.68000,
,,,0.002592800000,   3.68000,
,,,0.002592900000,   3.68000,
,,,0.002593000000,   3.68000,
,,,0.002593100000,   3.68000,
,,,0.002593200000,   3.68000,
,,,0.002593300000,   3.68000,
,,,0.002593400000,   3.68000,
,,,0.002593500000,   3.60000,
,,,0.002593600000,   3.52000,
,,,0.002593700000,   3.68000,
,,,0.002593800000,   3.68000,
,,,0.002593900000,   3.60000,
,,,0.002594000000,   3.68000,
,,,0.002594100000,   3.60000,
,,,0.002594200000,   3.68000,
,,,0.002594300000,   3.68000,
,,,0.002594400000,   3.68000,
,,,0.002594500000,   3.68000,
,,,0.002594600000,   3.68000,
,,,0.002594700000,   3.68000,
,,,0.002594800000,   3.76000,
,,,0.002594900000,   3.68000,
,,,0.002595000000,   3.68000,
,,,0.002595100000,   3.68000,
,,,0.002595200000,   3.68000,
,,,0.002595300000,   3.68000,
,,,0.002595400000,   3.68000,
,,,0.002595500000,   3.68000,
,,,0.002595600000,   3.60000,
,,,0.002595700000,   3.68000,
,,,0.002595800000,   3.60000,
,,,0.002595900000,   3.60000,
,,,0.002596000000,   3.68000,
,,,0.002596100000,   3.68000,
,,,0.002596200000,   3.68000,
,,,0.002596300000,   3.60000,
,,,0.002596400000,   3.68000,
,,,0.002596500000,   3.68000,
,,,0.002596600000,   3.68000,
,,,0.002596700000,   3.68000,
,,,0.002596800000,   3.68000,
,,,0.002596900000,   3.60000,
,,,0.002597000000,   3.60000,
,,,0.002597100000,   3.60000,
,,,0.002597200000,   3.60000,
,,,0.002597300000,   3.76000,
,,,0.002597400000,   3.68000,
,,,0.002597500000,   3.60000,
,,,0.002597600000,   3.68000,
,,,0.002597700000,   3.68000,
,,,0.002597800000,   3.60000,
,,,0.002597900000,   3.68000,
,,,0.002598000000,   3.68000,
,,,0.002598100000,   3.68000,
,,,0.002598200000,   3.68000,
,,,0.002598300000,   3.68000,
,,,0.002598400000,   3.60000,
,,,0.002598500000,   3.76000,
,,,0.002598600000,   3.68000,
,,,0.002598700000,   3.68000,
,,,0.002598800000,   3.60000,
,,,0.002598900000,   3.60000,
,,,0.002599000000,   3.60000,
,,,0.002599100000,   3.52000,
,,,0.002599200000,   3.68000,
,,,0.002599300000,   3.68000,
,,,0.002599400000,   3.68000,
,,,0.002599500000,   3.76000,
,,,0.002599600000,   3.76000,
,,,0.002599700000,   3.68000,
,,,0.002599800000,   3.60000,
,,,0.002599900000,   3.68000,
,,,0.002600000000,   3.68000,
,,,0.002600100000,   3.68000,
,,,0.002600200000,   3.60000,
,,,0.002600300000,   3.68000,
,,,0.002600400000,   3.68000,
,,,0.002600500000,   3.60000,
,,,0.002600600000,   3.76000,
,,,0.002600700000,   3.60000,
,,,0.002600800000,   3.60000,
,,,0.002600900000,   3.68000,
,,,0.002601000000,   3.60000,
,,,0.002601100000,   3.76000,
,,,0.002601200000,   3.76000,
,,,0.002601300000,   3.76000,
,,,0.002601400000,   3.68000,
,,,0.002601500000,   3.68000,
,,,0.002601600000,   3.76000,
,,,0.002601700000,   3.76000,
,,,0.002601800000,   3.68000,
,,,0.002601900000,   3.76000,
,,,0.002602000000,   3.68000,
,,,0.002602100000,   3.68000,
,,,0.002602200000,   3.68000,
,,,0.002602300000,   3.60000,
,,,0.002602400000,   3.68000,
,,,0.002602500000,   3.68000,
,,,0.002602600000,   3.68000,
,,,0.002602700000,   3.68000,
,,,0.002602800000,   3.76000,
,,,0.002602900000,   3.60000,
,,,0.002603000000,   3.68000,
,,,0.002603100000,   3.68000,
,,,0.002603200000,   3.68000,
,,,0.002603300000,   3.68000,
,,,0.002603400000,   3.68000,
,,,0.002603500000,   3.60000,
,,,0.002603600000,   3.68000,
,,,0.002603700000,   3.60000,
,,,0.002603800000,   3.68000,
,,,0.002603900000,   3.68000,
,,,0.002604000000,   3.68000,
,,,0.002604100000,   3.60000,
,,,0.002604200000,   3.68000,
,,,0.002604300000,   3.68000,
,,,0.002604400000,   3.76000,
,,,0.002604500000,   3.68000,
,,,0.002604600000,   3.68000,
,,,0.002604700000,   3.60000,
,,,0.002604800000,   3.60000,
,,,0.002604900000,   3.68000,
,,,0.002605000000,   3.60000,
,,,0.002605100000,   3.68000,
,,,0.002605200000,   3.68000,
,,,0.002605300000,   3.68000,
,,,0.002605400000,   3.68000,
,,,0.002605500000,   3.60000,
,,,0.002605600000,   3.60000,
,,,0.002605700000,   3.68000,
,,,0.002605800000,   3.60000,
,,,0.002605900000,   3.60000,
,,,0.002606000000,   3.68000,
,,,0.002606100000,   3.68000,
,,,0.002606200000,   3.68000,
,,,0.002606300000,   3.68000,
,,,0.002606400000,   3.60000,
,,,0.002606500000,   3.68000,
,,,0.002606600000,   3.60000,
,,,0.002606700000,   3.68000,
,,,0.002606800000,   3.68000,
,,,0.002606900000,   3.60000,
,,,0.002607000000,   3.68000,
,,,0.002607100000,   3.60000,
,,,0.002607200000,   3.60000,
,,,0.002607300000,   3.68000,
,,,0.002607400000,   3.68000,
,,,0.002607500000,   3.68000,
,,,0.002607600000,   3.68000,
,,,0.002607700000,   3.76000,
,,,0.002607800000,   3.68000,
,,,0.002607900000,   3.76000,
,,,0.002608000000,   3.68000,
,,,0.002608100000,   3.68000,
,,,0.002608200000,   3.60000,
,,,0.002608300000,   3.68000,
,,,0.002608400000,   3.68000,
,,,0.002608500000,   3.60000,
,,,0.002608600000,   3.68000,
,,,0.002608700000,   3.68000,
,,,0.002608800000,   3.60000,
,,,0.002608900000,   3.60000,
,,,0.002609000000,   3.52000,
,,,0.002609100000,   3.76000,
,,,0.002609200000,   3.76000,
,,,0.002609300000,   3.68000,
,,,0.002609400000,   3.68000,
,,,0.002609500000,   3.60000,
,,,0.002609600000,   3.60000,
,,,0.002609700000,   3.60000,
,,,0.002609800000,   3.68000,
,,,0.002609900000,   3.68000,
,,,0.002610000000,   3.68000,
,,,0.002610100000,   3.68000,
,,,0.002610200000,   3.68000,
,,,0.002610300000,   3.68000,
,,,0.002610400000,   3.68000,
,,,0.002610500000,   3.68000,
,,,0.002610600000,   3.60000,
,,,0.002610700000,   3.60000,
,,,0.002610800000,   3.68000,
,,,0.002610900000,   3.68000,
,,,0.002611000000,   3.76000,
,,,0.002611100000,   3.68000,
,,,0.002611200000,   3.68000,
,,,0.002611300000,   3.60000,
