Data/ALL0015/F0015CH2.CSV

Record Length,2.500000e+03,,   0.000599000000,   5.20000,
Sample Interval,1.000000e-07,,   0.000599100000,   5.20000,
Trigger Point,-5.990000000000e+03,,   0.000599200000,   5.20000,
,,,   0.000599300000,   5.20000,
,,,   0.000599400000,   5.20000,
,,,   0.000599500000,   5.20000,
Source,CH2,,   0.000599600000,   5.00000,
Vertical Units,V,,   0.000599700000,   5.20000,
Vertical Scale,5.000000e+00,,   0.000599800000,   5.20000,
Vertical Offset,2.000000e+00,,   0.000599900000,   5.20000,
Horizontal Units,s,,   0.000600000000,   5.20000,
Horizontal Scale,2.500000e-05,,   0.000600100000,   5.20000,
Pt Fmt,Y,,   0.000600200000,   5.20000,
Yzero,0.000000e+00,,   0.000600300000,   5.20000,
Probe Atten,1.000000e+00,,   0.000600400000,   5.00000,
Model Number,TDS2001C,,   0.000600500000,   5.20000,
Serial Number,C012347,,   0.000600600000,   5.20000,
Firmware Version,FV:v24.26,,   0.000600700000,   5.20000,
,,,0.000600800000,   5.20000,
,,,0.000600900000,   5.00000,
,,,0.000601000000,   5.20000,
,,,0.000601100000,   5.20000,
,,,0.000601200000,   5.20000,
,,,0.000601300000,   5.20000,
,,,0.000601400000,   5.20000,
,,,0.000601500000,   5.20000,
,,,0.000601600000,   5.00000,
,,,0.000601700000,   5.40000,
,,,0.000601800000,   5.00000,
,,,0.000601900000,   5.00000,
,,,0.000602000000,   5.20000,
,,,0.000602100000,   5.20000,
,,,0.000602200000,   5.20000,
,,,0.000602300000,   5.00000,
,,,0.000602400000,   5.00000,
,,,0.000602500000,   5.20000,
,,,0.000602600000,   5.20000,
,,,0.000602700000,   5.20000,
,,,0.000602800000,   5.00000,
,,,0.000602900000,   5.40000,
,,,0.000603000000,   5.20000,
,,,0.000603100000,   5.20000,
,,,0.000603200000,   5.20000,
,,,0.000603300000,   5.00000,
,,,0.000603400000,   5.20000,
,,,0.000603500000,   5.20000,
,,,0.000603600000,   5.00000,
,,,0.000603700000,   5.00000,
,,,0.000603800000,   5.20000,
,,,0.000603900000,   5.20000,
,,,0.000604000000,   5.00000,
,,,0.000604100000,   5.00000,
,,,0.000604200000,   5.20000,
,,,0.000604300000,   5.00000,
,,,0.000604400000,   5.20000,
,,,0.000604500000,   5.00000,
,,,0.000604600000,   5.00000,
,,,0.000604700000,   5.20000,
,,,0.000604800000,   5.00000,
,,,0.000604900000,   5.20000,
,,,0.000605000000,   5.00000,
,,,0.000605100000,   5.20000,
,,,0.000605200000,   5.20000,
,,,0.000605300000,   5.20000,
,,,0.000605400000,   5.20000,
,,,0.000605500000,   5.20000,
,,,0.000605600000,   5.20000,
,,,0.000605700000,   5.00000,
,,,0.000605800000,   5.00000,
,,,0.000605900000,   5.20000,
,,,0.000606000000,   5.20000,
,,,0.000606100000,   5.20000,
,,,0.000606200000,   5.40000,
,,,0.000606300000,   5.20000,
,,,0.000606400000,   5.20000,
,,,0.000606500000,   5.20000,
,,,0.000606600000,   5.20000,
,,,0.000606700000,   5.00000,
,,,0.000606800000,   5.20000,
,,,0.000606900000,   5.20000,
,,,0.000607000000,   5.20000,
,,,0.000607100000,   5.20000,
,,,0.000607200000,   5.00000,
,,,0.000607300000,   5.20000,
,,,0.000607400000,   5.20000,
,,,0.000607500000,   5.00000,
,,,0.000607600000,   5.00000,
,,,0.000607700000,   5.00000,
,,,0.000607800000,   5.20000,
,,,0.000607900000,   5.00000,
,,,0.000608000000,   5.00000,
,,,0.000608100000,   5.20000,
,,,0.000608200000,   5.40000,
,,,0.000608300000,   5.20000,
,,,0.000608400000,   5.00000,
,,,0.000608500000,   5.00000,
,,,0.000608600000,   5.20000,
,,,0.000608700000,   5.20000,
,,,0.000608800000,   5.20000,
,,,0.000608900000,   5.40000,
,,,0.000609000000,   5.20000,
,,,0.000609100000,   5.20000,
,,,0.000609200000,   5.40000,
,,,0.000609300000,   5.20000,
,,,0.000609400000,   5.00000,
,,,0.000609500000,   5.20000,
,,,0.000609600000,   5.20000,
,,,0.000609700000,   5.20000,
,,,0.000609800000,   5.20000,
,,,0.000609900000,   5.20000,
,,,0.000610000000,   5.40000,
,,,0.000610100000,   5.20000,
,,,0.000610200000,   5.40000,
,,,0.000610300000,   5.00000,
,,,0.000610400000,   5.20000,
,,,0.000610500000,   5.00000,
,,,0.000610600000,   5.00000,
,,,0.000610700000,   5.20000,
,,,0.000610800000,   5.20000,
,,,0.000610900000,   5.20000,
,,,0.000611000000,   5.20000,
,,,0.000611100000,   5.20000,
,,,0.000611200000,   5.20000,
,,,0.000611300000,   5.20000,
,,,0.000611400000,   5.20000,
,,,0.000611500000,   5.20000,
,,,0.000611600000,   5.20000,
,,,0.000611700000,   5.20000,
,,,0.000611800000,   5.00000,
,,,0.000611900000,   5.20000,
,,,0.000612000000,   5.20000,
,,,0.000612100000,   5.20000,
,,,0.000612200000,   5.20000,
,,,0.000612300000,   5.00000,
,,,0.000612400000,   5.20000,
,,,0.000612500000,   5.00000,
,,,0.000612600000,   5.20000,
,,,0.000612700000,   5.00000,
,,,0.000612800000,   5.20000,
,,,0.000612900000,   5.20000,
,,,0.000613000000,   5.20000,
,,,0.000613100000,   5.20000,
,,,0.000613200000,   5.20000,
,,,0.000613300000,   5.20000,
,,,0.000613400000,   5.00000,
,,,0.000613500000,   5.00000,
,,,0.000613600000,   5.20000,
,,,0.000613700000,   5.20000,
,,,0.000613800000,   5.20000,
,,,0.000613900000,   5.00000,
,,,0.000614000000,   5.20000,
,,,0.000614100000,   5.20000,
,,,0.000614200000,   5.00000,
,,,0.000614300000,   5.20000,
,,,0.000614400000,   5.00000,
,,,0.000614500000,   5.20000,
,,,0.000614600000,   5.40000,
,,,0.000614700000,   5.20000,
,,,0.000614800000,   5.20000,
,,,0.000614900000,   5.00000,
,,,0.000615000000,   5.20000,
,,,0.000615100000,   5.40000,
,,,0.000615200000,   5.20000,
,,,0.000615300000,   5.20000,
,,,0.000615400000,   5.00000,
,,,0.000615500000,   5.00000,
,,,0.000615600000,   5.20000,
,,,0.000615700000,   5.20000,
,,,0.000615800000,   5.20000,
,,,0.000615900000,   5.20000,
,,,0.000616000000,   5.20000,
,,,0.000616100000,   5.40000,
,,,0.000616200000,   5.20000,
,,,0.000616300000,   5.20000,
,,,0.000616400000,   5.20000,
,,,0.000616500000,   5.00000,
,,,0.000616600000,   5.20000,
,,,0.000616700000,   5.20000,
,,,0.000616800000,   5.20000,
,,,0.000616900000,   5.20000,
,,,0.000617000000,   5.00000,
,,,0.000617100000,   5.00000,
,,,0.000617200000,   5.20000,
,,,0.000617300000,   5.20000,
,,,0.000617400000,   5.00000,
,,,0.000617500000,   5.20000,
,,,0.000617600000,   5.20000,
,,,0.000617700000,   5.20000,
,,,0.000617800000,   5.20000,
,,,0.000617900000,   5.20000,
,,,0.000618000000,   5.20000,
,,,0.000618100000,   5.20000,
,,,0.000618200000,   5.20000,
,,,0.000618300000,   5.00000,
,,,0.000618400000,   5.00000,
,,,0.000618500000,   5.20000,
,,,0.000618600000,   5.20000,
,,,0.000618700000,   5.20000,
,,,0.000618800000,   5.00000,
,,,0.000618900000,   5.20000,
,,,0.000619000000,   5.00000,
,,,0.000619100000,   5.20000,
,,,0.000619200000,   5.20000,
,,,0.000619300000,   5.20000,
,,,0.000619400000,   5.20000,
,,,0.000619500000,   5.00000,
,,,0.000619600000,   5.20000,
,,,0.000619700000,   5.20000,
,,,0.000619800000,   5.20000,
,,,0.000619900000,   5.20000,
,,,0.000620000000,   5.00000,
,,,0.000620100000,   5.20000,
,,,0.000620200000,   5.20000,
,,,0.000620300000,   5.20000,
,,,0.000620400000,   5.20000,
,,,0.000620500000,   5.20000,
,,,0.000620600000,   5.20000,
,,,0.000620700000,   5.20000,
,,,0.000620800000,   5.20000,
,,,0.000620900000,   5.20000,
,,,0.000621000000,   5.40000,
,,,0.000621100000,   5.00000,
,,,0.000621200000,   5.20000,
,,,0.000621300000,   5.00000,
,,,0.000621400000,   5.00000,
,,,0.000621500000,   5.20000,
,,,0.000621600000,   5.20000,
,,,0.000621700000,   5.20000,
,,,0.000621800000,   5.40000,
,,,0.000621900000,   5.20000,
,,,0.000622000000,   5.20000,
,,,0.000622100000,   5.40000,
,,,0.000622200000,   5.20000,
,,,0.000622300000,   5.20000,
,,,0.000622400000,   5.20000,
,,,0.000622500000,   5.20000,
,,,0.000622600000,   5.20000,
,,,0.000622700000,   5.20000,
,,,0.000622800000,   5.40000,
,,,0.000622900000,   5.00000,
,,,0.000623000000,   5.20000,
,,,0.000623100000,   5.20000,
,,,0.000623200000,   5.00000,
,,,0.000623300000,   5.00000,
,,,0.000623400000,   5.00000,
,,,0.000623500000,   5.00000,
,,,0.000623600000,   5.20000,
,,,0.000623700000,   5.00000,
,,,0.000623800000,   5.00000,
,,,0.000623900000,   5.20000,
,,,0.000624000000,   5.00000,
,,,0.000624100000,   5.00000,
,,,0.000624200000,   5.20000,
,,,0.000624300000,   5.20000,
,,,0.000624400000,   5.20000,
,,,0.000624500000,   5.20000,
,,,0.000624600000,   5.00000,
,,,0.000624700000,   5.20000,
,,,0.000624800000,   5.20000,
,,,0.000624900000,   5.20000,
,,,0.000625000000,   5.20000,
,,,0.000625100000,   5.20000,
,,,0.000625200000,   5.20000,
,,,0.000625300000,   5.00000,
,,,0.000625400000,   5.20000,
,,,0.000625500000,   5.20000,
,,,0.000625600000,   5.20000,
,,,0.000625700000,   5.20000,
,,,0.000625800000,   5.20000,
,,,0.000625900000,   5.20000,
,,,0.000626000000,   5.40000,
,,,0.000626100000,   5.40000,
,,,0.000626200000,   5.20000,
,,,0.000626300000,   5.20000,
,,,0.000626400000,   5.40000,
,,,0.000626500000,   5.00000,
,,,0.000626600000,   5.20000,
,,,0.000626700000,   5.00000,
,,,0.000626800000,   5.20000,
,,,0.000626900000,   5.20000,
,,,0.000627000000,   5.20000,
,,,0.000627100000,   5.00000,
,,,0.000627200000,   5.00000,
,,,0.000627300000,   5.20000,
,,,0.000627400000,   5.20000,
,,,0.000627500000,   5.20000,
,,,0.000627600000,   5.00000,
,,,0.000627700000,   5.20000,
,,,0.000627800000,   5.00000,
,,,0.000627900000,   5.00000,
,,,0.000628000000,   5.20000,
,,,0.000628100000,   5.20000,
,,,0.000628200000,   5.00000,
,,,0.000628300000,   5.20000,
,,,0.000628400000,   5.20000,
,,,0.000628500000,   5.40000,
,,,0.000628600000,   5.00000,
,,,0.000628700000,   5.40000,
,,,0.000628800000,   5.00000,
,,,0.000628900000,   5.20000,
,,,0.000629000000,   5.20000,
,,,0.000629100000,   5.20000,
,,,0.000629200000,   5.20000,
,,,0.000629300000,   5.20000,
,,,0.000629400000,   5.20000,
,,,0.000629500000,   5.20000,
,,,0.000629600000,   5.00000,
,,,0.000629700000,   5.20000,
,,,0.000629800000,   5.20000,
,,,0.000629900000,   5.00000,
,,,0.000630000000,   5.40000,
,,,0.000630100000,   5.40000,
,,,0.000630200000,   5.20000,
,,,0.000630300000,   5.00000,
,,,0.000630400000,   5.00000,
,,,0.000630500000,   5.20000,
,,,0.000630600000,   5.20000,
,,,0.000630700000,   5.20000,
,,,0.000630800000,   5.00000,
,,,0.000630900000,   5.20000,
,,,0.000631000000,   5.00000,
,,,0.000631100000,   5.00000,
,,,0.000631200000,   5.20000,
,,,0.000631300000,   5.20000,
,,,0.000631400000,   5.20000,
,,,0.000631500000,   5.20000,
,,,0.000631600000,   5.20000,
,,,0.000631700000,   5.20000,
,,,0.000631800000,   5.40000,
,,,0.000631900000,   5.00000,
,,,0.000632000000,   5.00000,
,,,0.000632100000,   5.20000,
,,,0.000632200000,   5.20000,
,,,0.000632300000,   5.40000,
,,,0.000632400000,   5.20000,
,,,0.000632500000,   5.20000,
,,,0.000632600000,   5.20000,
,,,0.000632700000,   5.00000,
,,,0.000632800000,   5.20000,
,,,0.000632900000,   5.40000,
,,,0.000633000000,   5.20000,
,,,0.000633100000,   5.00000,
,,,0.000633200000,   5.20000,
,,,0.000633300000,   5.20000,
,,,0.000633400000,   5.20000,
,,,0.000633500000,   5.00000,
,,,0.000633600000,   5.20000,
,,,0.000633700000,   5.00000,
,,,0.000633800000,   5.20000,
,,,0.000633900000,   5.20000,
,,,0.000634000000,   5.00000,
,,,0.000634100000,   5.20000,
,,,0.000634200000,   5.00000,
,,,0.000634300000,   5.00000,
,,,0.000634400000,   5.20000,
,,,0.000634500000,   5.00000,
,,,0.000634600000,   5.20000,
,,,0.000634700000,   5.00000,
,,,0.000634800000,   5.20000,
,,,0.000634900000,   5.20000,
,,,0.000635000000,   5.20000,
,,,0.000635100000,   5.20000,
,,,0.000635200000,   5.40000,
,,,0.000635300000,   5.00000,
,,,0.000635400000,   5.20000,
,,,0.000635500000,   5.20000,
,,,0.000635600000,   5.40000,
,,,0.000635700000,   5.20000,
,,,0.000635800000,   5.20000,
,,,0.000635900000,   5.20000,
,,,0.000636000000,   5.00000,
,,,0.000636100000,   5.00000,
,,,0.000636200000,   5.20000,
,,,0.000636300000,   5.40000,
,,,0.000636400000,   5.20000,
,,,0.000636500000,   5.20000,
,,,0.000636600000,   5.40000,
,,,0.000636700000,   5.20000,
,,,0.000636800000,   5.20000,
,,,0.000636900000,   5.20000,
,,,0.000637000000,   5.20000,
,,,0.000637100000,   5.00000,
,,,0.000637200000,   5.00000,
,,,0.000637300000,   5.20000,
,,,0.000637400000,   5.20000,
,,,0.000637500000,   5.20000,
,,,0.000637600000,   5.00000,
,,,0.000637700000,   5.00000,
,,,0.000637800000,   5.00000,
,,,0.000637900000,   5.20000,
,,,0.000638000000,   5.20000,
,,,0.000638100000,   4.80000,
,,,0.000638200000,   5.20000,
,,,0.000638300000,   5.40000,
,,,0.000638400000,   5.00000,
,,,0.000638500000,   5.20000,
,,,0.000638600000,   5.40000,
,,,0.000638700000,   5.20000,
,,,0.000638800000,   5.20000,
,,,0.000638900000,   5.40000,
,,,0.000639000000,   5.20000,
,,,0.000639100000,   5.00000,
,,,0.000639200000,   5.20000,
,,,0.000639300000,   5.00000,
,,,0.000639400000,   5.20000,
,,,0.000639500000,   5.20000,
,,,0.000639600000,   5.20000,
,,,0.000639700000,   5.20000,
,,,0.000639800000,   5.20000,
,,,0.000639900000,   5.20000,
,,,0.000640000000,   5.20000,
,,,0.000640100000,   5.20000,
,,,0.000640200000,   5.00000,
,,,0.000640300000,   5.20000,
,,,0.000640400000,   5.20000,
,,,0.000640500000,   5.20000,
,,,0.000640600000,   5.20000,
,,,0.000640700000,   5.20000,
,,,0.000640800000,   5.20000,
,,,0.000640900000,   5.00000,
,,,0.000641000000,   5.20000,
,,,0.000641100000,   5.00000,
,,,0.000641200000,   5.00000,
,,,0.000641300000,   5.20000,
,,,0.000641400000,   5.20000,
,,,0.000641500000,   5.20000,
,,,0.000641600000,   5.40000,
,,,0.000641700000,   5.20000,
,,,0.000641800000,   5.20000,
,,,0.000641900000,   5.20000,
,,,0.000642000000,   5.00000,
,,,0.000642100000,   5.20000,
,,,0.000642200000,   5.20000,
,,,0.000642300000,   5.20000,
,,,0.000642400000,   5.00000,
,,,0.000642500000,   5.20000,
,,,0.000642600000,   5.20000,
,,,0.000642700000,   5.20000,
,,,0.000642800000,   5.20000,
,,,0.000642900000,   5.20000,
,,,0.000643000000,   5.00000,
,,,0.000643100000,   5.20000,
,,,0.000643200000,   5.20000,
,,,0.000643300000,   5.20000,
,,,0.000643400000,   5.00000,
,,,0.000643500000,  -5.20000,
,,,0.000643600000,  -4.80000,
,,,0.000643700000,  -4.80000,
,,,0.000643800000,  -4.60000,
,,,0.000643900000,  -4.80000,
,,,0.000644000000,  -4.80000,
,,,0.000644100000,  -4.80000,
,,,0.000644200000,  -4.80000,
,,,0.000644300000,  -4.80000,
,,,0.000644400000,  -5.00000,
,,,0.000644500000,  -4.80000,
,,,0.000644600000,  -4.80000,
,,,0.000644700000,  -4.80000,
,,,0.000644800000,  -4.80000,
,,,0.000644900000,  -4.80000,
,,,0.000645000000,  -4.60000,
,,,0.000645100000,  -4.80000,
,,,0.000645200000,  -4.80000,
,,,0.000645300000,  -5.00000,
,,,0.000645400000,  -4.60000,
,,,0.000645500000,  -4.60000,
,,,0.000645600000,  -4.60000,
,,,0.000645700000,  -4.60000,
,,,0.000645800000,  -4.80000,
,,,0.000645900000,  -4.80000,
,,,0.000646000000,  -4.60000,
,,,0.000646100000,  -4.80000,
,,,0.000646200000,  -4.80000,
,,,0.000646300000,  -5.00000,
,,,0.000646400000,  -4.80000,
,,,0.000646500000,  -4.80000,
,,,0.000646600000,  -4.80000,
,,,0.000646700000,  -4.60000,
,,,0.000646800000,  -4.80000,
,,,0.000646900000,  -4.80000,
,,,0.000647000000,  -5.00000,
,,,0.000647100000,  -4.80000,
,,,0.000647200000,  -4.80000,
,,,0.000647300000,  -4.80000,
,,,0.000647400000,  -5.00000,
,,,0.000647500000,  -4.60000,
,,,0.000647600000,  -5.00000,
,,,0.000647700000,  -4.60000,
,,,0.000647800000,  -5.00000,
,,,0.000647900000,  -4.60000,
,,,0.000648000000,  -4.80000,
,,,0.000648100000,  -4.60000,
,,,0.000648200000,  -4.80000,
,,,0.000648300000,  -4.80000,
,,,0.000648400000,  -4.80000,
,,,0.000648500000,  -4.80000,
,,,0.000648600000,  -4.80000,
,,,0.000648700000,  -4.80000,
,,,0.000648800000,  -4.80000,
,,,0.000648900000,  -4.80000,
,,,0.000649000000,  -4.80000,
,,,0.000649100000,  -4.80000,
,,,0.000649200000,  -4.60000,
,,,0.000649300000,  -4.80000,
,,,0.000649400000,  -4.80000,
,,,0.000649500000,  -4.80000,
,,,0.000649600000,  -4.80000,
,,,0.000649700000,  -4.80000,
,,,0.000649800000,  -4.80000,
,,,0.000649900000,  -4.80000,
,,,0.000650000000,  -4.80000,
,,,0.000650100000,  -4.80000,
,,,0.000650200000,  -4.80000,
,,,0.000650300000,  -4.80000,
,,,0.000650400000,  -4.80000,
,,,0.000650500000,  -4.80000,
,,,0.000650600000,  -4.80000,
,,,0.000650700000,  -4.60000,
,,,0.000650800000,  -4.80000,
,,,0.000650900000,  -5.00000,
,,,0.000651000000,  -4.60000,
,,,0.000651100000,  -5.00000,
,,,0.000651200000,  -4.80000,
,,,0.000651300000,  -4.80000,
,,,0.000651400000,  -4.80000,
,,,0.000651500000,  -4.80000,
,,,0.000651600000,  -4.80000,
,,,0.000651700000,  -4.80000,
,,,0.000651800000,  -4.60000,
,,,0.000651900000,  -4.80000,
,,,0.000652000000,  -4.80000,
,,,0.000652100000,  -5.00000,
,,,0.000652200000,  -4.80000,
,,,0.000652300000,  -4.80000,
,,,0.000652400000,  -5.00000,
,,,0.000652500000,  -4.80000,
,,,0.000652600000,  -5.00000,
,,,0.000652700000,  -4.80000,
,,,0.000652800000,  -4.80000,
,,,0.000652900000,  -4.80000,
,,,0.000653000000,  -4.80000,
,,,0.000653100000,  -4.60000,
,,,0.000653200000,  -4.80000,
,,,0.000653300000,  -4.80000,
,,,0.000653400000,  -4.80000,
,,,0.000653500000,  -4.80000,
,,,0.000653600000,  -5.00000,
,,,0.000653700000,  -4.80000,
,,,0.000653800000,  -4.80000,
,,,0.000653900000,  -4.80000,
,,,0.000654000000,  -4.80000,
,,,0.000654100000,  -4.80000,
,,,0.000654200000,  -4.80000,
,,,0.000654300000,  -4.80000,
,,,0.000654400000,  -4.80000,
,,,0.000654500000,  -4.80000,
,,,0.000654600000,  -5.00000,
,,,0.000654700000,  -4.80000,
,,,0.000654800000,  -4.80000,
,,,0.000654900000,  -4.80000,
,,,0.000655000000,  -4.80000,
,,,0.000655100000,  -4.80000,
,,,0.000655200000,  -5.00000,
,,,0.000655300000,  -4.80000,
,,,0.000655400000,  -5.00000,
,,,0.000655500000,  -4.80000,
,,,0.000655600000,  -4.80000,
,,,0.000655700000,  -4.80000,
,,,0.000655800000,  -4.80000,
,,,0.000655900000,  -4.80000,
,,,0.000656000000,  -5.00000,
,,,0.000656100000,  -5.00000,
,,,0.000656200000,  -4.80000,
,,,0.000656300000,  -4.80000,
,,,0.000656400000,  -4.80000,
,,,0.000656500000,  -4.80000,
,,,0.000656600000,  -4.80000,
,,,0.000656700000,  -4.60000,
,,,0.000656800000,  -4.80000,
,,,0.000656900000,  -5.00000,
,,,0.000657000000,  -4.80000,
,,,0.000657100000,  -4.60000,
,,,0.000657200000,  -4.80000,
,,,0.000657300000,  -5.00000,
,,,0.000657400000,  -4.80000,
,,,0.000657500000,  -4.80000,
,,,0.000657600000,  -4.80000,
,,,0.000657700000,  -4.80000,
,,,0.000657800000,  -4.80000,
,,,0.000657900000,  -5.00000,
,,,0.000658000000,  -4.80000,
,,,0.000658100000,  -4.80000,
,,,0.000658200000,  -4.80000,
,,,0.000658300000,  -4.80000,
,,,0.000658400000,  -4.60000,
,,,0.000658500000,  -5.00000,
,,,0.000658600000,  -4.80000,
,,,0.000658700000,  -4.80000,
,,,0.000658800000,  -5.00000,
,,,0.000658900000,  -4.80000,
,,,0.000659000000,  -4.80000,
,,,0.000659100000,  -4.80000,
,,,0.000659200000,  -4.80000,
,,,0.000659300000,  -4.80000,
,,,0.000659400000,  -5.00000,
,,,0.000659500000,  -4.60000,
,,,0.000659600000,  -4.80000,
,,,0.000659700000,  -4.80000,
,,,0.000659800000,  -4.80000,
,,,0.000659900000,  -5.00000,
,,,0.000660000000,  -4.80000,
,,,0.000660100000,  -5.00000,
,,,0.000660200000,  -4.80000,
,,,0.000660300000,  -4.80000,
,,,0.000660400000,  -4.80000,
,,,0.000660500000,  -4.80000,
,,,0.000660600000,  -4.80000,
,,,0.000660700000,  -4.80000,
,,,0.000660800000,  -4.80000,
,,,0.000660900000,  -4.80000,
,,,0.000661000000,  -5.00000,
,,,0.000661100000,  -4.80000,
,,,0.000661200000,  -4.80000,
,,,0.000661300000,  -4.80000,
,,,0.000661400000,  -4.80000,
,,,0.000661500000,  -4.80000,
,,,0.000661600000,  -4.80000,
,,,0.000661700000,  -4.60000,
,,,0.000661800000,  -4.80000,
,,,0.000661900000,  -4.80000,
,,,0.000662000000,  -4.80000,
,,,0.000662100000,  -5.00000,
,,,0.000662200000,  -4.60000,
,,,0.000662300000,  -5.00000,
,,,0.000662400000,  -4.80000,
,,,0.000662500000,  -4.80000,
,,,0.000662600000,  -4.60000,
,,,0.000662700000,  -4.80000,
,,,0.000662800000,  -4.60000,
,,,0.000662900000,  -4.80000,
,,,0.000663000000,  -4.60000,
,,,0.000663100000,  -4.80000,
,,,0.000663200000,  -4.80000,
,,,0.000663300000,  -4.80000,
,,,0.000663400000,  -4.80000,
,,,0.000663500000,  -5.00000,
,,,0.000663600000,  -4.80000,
,,,0.000663700000,  -4.80000,
,,,0.000663800000,  -5.00000,
,,,0.000663900000,  -4.80000,
,,,0.000664000000,  -4.60000,
,,,0.000664100000,  -4.80000,
,,,0.000664200000,  -5.00000,
,,,0.000664300000,  -4.80000,
